datetime,value
2020-12-07 13:00,0.470
2020-12-07 13:15,0.469
2020-12-07 13:30,0.467
2020-12-07 13:45,0.464
2020-12-07 14:00,0.465
2020-12-07 14:15,0.467
2020-12-07 14:30,0.471
2020-12-07 14:45,0.473
2020-12-07 15:00,0.461
2020-12-07 15:15,0.467
2020-12-07 15:30,0.464
2020-12-07 15:45,0.458
2020-12-07 16:00,0.459
2020-12-07 16:15,0.458
2020-12-07 16:30,0.459
2020-12-07 16:45,0.457
2020-12-07 17:00,0.459
2020-12-07 17:15,0.465
2020-12-07 17:30,0.456
2020-12-07 17:45,0.455
2020-12-07 18:00,0.461
2020-12-07 18:15,0.456
2020-12-07 18:30,0.457
2020-12-07 18:45,0.455
2020-12-07 19:00,0.459
2020-12-07 19:15,0.454
2020-12-07 19:30,0.452
2020-12-07 19:45,0.459
2020-12-07 20:00,0.454
2020-12-07 20:15,0.455
2020-12-07 20:30,0.454
2020-12-07 20:45,0.459
2020-12-07 21:00,0.452
2020-12-07 21:15,0.449
2020-12-07 21:30,0.452
2020-12-07 21:45,0.445
2020-12-07 22:00,0.452
2020-12-07 22:15,0.464
2020-12-07 22:30,0.456
2020-12-07 22:45,0.451
2020-12-07 23:00,0.460
2020-12-07 23:15,0.456
2020-12-07 23:30,0.455
2020-12-07 23:45,0.457
2020-12-08 00:00,0.454
2020-12-08 00:15,0.456
2020-12-08 00:30,0.454
2020-12-08 00:45,0.453
2020-12-08 01:00,0.452
2020-12-08 01:15,0.452
2020-12-08 01:30,0.452
2020-12-08 01:45,0.453
2020-12-08 02:00,0.452
2020-12-08 02:15,0.454
2020-12-08 02:30,0.451
2020-12-08 02:45,0.454
2020-12-08 03:00,0.453
2020-12-08 03:15,0.455
2020-12-08 03:30,0.455
2020-12-08 03:45,0.450
2020-12-08 04:00,0.455
2020-12-08 04:15,0.455
2020-12-08 04:30,0.457
2020-12-08 04:45,0.462
2020-12-08 05:00,0.452
2020-12-08 05:15,0.460
2020-12-08 05:30,0.464
2020-12-08 05:45,0.463
2020-12-08 06:00,0.465
2020-12-08 06:15,0.466
2020-12-08 06:30,0.462
2020-12-08 06:45,0.475
2020-12-08 07:00,0.470
2020-12-08 07:15,0.472
2020-12-08 07:30,0.472
2020-12-08 07:45,0.478
2020-12-08 08:00,0.477
2020-12-08 08:15,0.480
2020-12-08 08:30,0.484
2020-12-08 08:45,0.495
2020-12-08 09:00,0.489
2020-12-08 09:15,0.492
2020-12-08 09:30,0.498
2020-12-08 09:45,0.511
2020-12-08 10:00,0.513
2020-12-08 10:15,0.522
2020-12-08 10:30,0.526
2020-12-08 10:45,0.529
2020-12-08 11:00,0.539
2020-12-08 11:15,0.549
2020-12-08 11:30,0.556
2020-12-08 11:45,0.573
2020-12-08 12:00,0.580
2020-12-08 12:15,0.595
2020-12-08 12:30,0.603
2020-12-08 12:45,0.610
2020-12-08 13:00,0.624
2020-12-08 13:15,0.634
2020-12-08 13:30,0.639
2020-12-08 13:45,0.655
2020-12-08 14:00,0.663
2020-12-08 14:15,0.674
2020-12-08 14:30,0.685
2020-12-08 14:45,0.689
2020-12-08 15:00,0.697
2020-12-08 15:15,0.695
2020-12-08 15:30,0.692
2020-12-08 15:45,0.694
2020-12-08 16:00,0.685
2020-12-08 16:15,0.682
2020-12-08 16:30,0.683
2020-12-08 16:45,0.678
2020-12-08 17:00,0.676
2020-12-08 17:15,0.666
2020-12-08 17:30,0.668
2020-12-08 17:45,0.661
2020-12-08 18:00,0.659
2020-12-08 18:15,0.655
2020-12-08 18:30,0.643
2020-12-08 18:45,0.645
2020-12-08 19:00,0.640
2020-12-08 19:15,0.638
2020-12-08 19:30,0.634
2020-12-08 19:45,0.627
2020-12-08 20:00,0.623
2020-12-08 20:15,0.623
2020-12-08 20:30,0.622
2020-12-08 20:45,0.616
2020-12-08 21:00,0.609
2020-12-08 21:15,0.606
2020-12-08 21:30,0.602
2020-12-08 21:45,0.597
2020-12-08 22:00,0.599
2020-12-08 22:15,0.592
2020-12-08 22:30,0.592
2020-12-08 22:45,0.587
2020-12-08 23:00,0.587
2020-12-08 23:15,0.588
2020-12-08 23:30,0.580
2020-12-08 23:45,0.580
2020-12-09 00:00,0.573
2020-12-09 00:15,0.573
2020-12-09 00:30,0.569
2020-12-09 00:45,0.573
2020-12-09 01:00,0.566
2020-12-09 01:15,0.564
2020-12-09 01:30,0.566
2020-12-09 01:45,0.566
2020-12-09 02:00,0.558
2020-12-09 02:15,0.560
2020-12-09 02:30,0.552
2020-12-09 02:45,0.551
2020-12-09 03:00,0.550
2020-12-09 03:15,0.545
2020-12-09 03:30,0.553
2020-12-09 03:45,0.544
2020-12-09 04:00,0.544
2020-12-09 04:15,0.544
2020-12-09 04:30,0.545
2020-12-09 04:45,0.542
2020-12-09 05:00,0.539
2020-12-09 05:15,0.543
2020-12-09 05:30,0.540
2020-12-09 05:45,0.536
2020-12-09 06:00,0.536
2020-12-09 06:15,0.528
2020-12-09 06:30,0.532
2020-12-09 06:45,0.527
2020-12-09 07:00,0.531
2020-12-09 07:15,0.526
2020-12-09 07:30,0.524
2020-12-09 07:45,0.528
2020-12-09 08:00,0.528
2020-12-09 08:15,0.528
2020-12-09 08:30,0.517
2020-12-09 08:45,0.514
2020-12-09 09:00,0.520
2020-12-09 09:15,0.515
2020-12-09 09:30,0.517
2020-12-09 09:45,0.514
2020-12-09 10:00,0.513
2020-12-09 10:15,0.511
2020-12-09 10:30,0.513
2020-12-09 10:45,0.512
2020-12-09 11:00,0.506
2020-12-09 11:15,0.502
2020-12-09 11:30,0.505
2020-12-09 11:45,0.510
2020-12-09 12:00,0.506
2020-12-09 12:15,0.502
2020-12-09 12:30,0.504
2020-12-09 12:45,0.502
2020-12-09 13:00,0.502
2020-12-09 13:15,0.503
2020-12-09 13:30,0.500
2020-12-09 13:45,0.499
2020-12-09 14:00,0.500
2020-12-09 14:15,0.500
2020-12-09 14:30,0.501
2020-12-09 14:45,0.501
2020-12-09 15:00,0.500
2020-12-09 15:15,0.502
2020-12-09 15:30,0.507
2020-12-09 15:45,0.505
2020-12-09 16:00,0.506
2020-12-09 16:15,0.509
2020-12-09 16:30,0.512
2020-12-09 16:45,0.512
2020-12-09 17:00,0.512
2020-12-09 17:15,0.515
2020-12-09 17:30,0.517
2020-12-09 17:45,0.522
2020-12-09 18:00,0.526
2020-12-09 18:15,0.532
2020-12-09 18:30,0.536
2020-12-09 18:45,0.538
2020-12-09 19:00,0.546
2020-12-09 19:15,0.548
2020-12-09 19:30,0.557
2020-12-09 19:45,0.559
2020-12-09 20:00,0.562
2020-12-09 20:15,0.572
2020-12-09 20:30,0.580
2020-12-09 20:45,0.585
2020-12-09 21:00,0.593
2020-12-09 21:15,0.599
2020-12-09 21:30,0.609
2020-12-09 21:45,0.617
2020-12-09 22:00,0.629
2020-12-09 22:15,0.634
2020-12-09 22:30,0.637
2020-12-09 22:45,0.636
2020-12-09 23:00,0.641
2020-12-09 23:15,0.646
2020-12-09 23:30,0.648
2020-12-09 23:45,0.647
2020-12-10 00:00,0.645
2020-12-10 00:15,0.645
2020-12-10 00:30,0.642
2020-12-10 00:45,0.645
2020-12-10 01:00,0.636
2020-12-10 01:15,0.642
2020-12-10 01:30,0.636
2020-12-10 01:45,0.634
2020-12-10 02:00,0.627
2020-12-10 02:15,0.625
2020-12-10 02:30,0.627
2020-12-10 02:45,0.621
2020-12-10 03:00,0.620
2020-12-10 03:15,0.619
2020-12-10 03:30,0.614
2020-12-10 03:45,0.615
2020-12-10 04:00,0.610
2020-12-10 04:15,0.614
2020-12-10 04:30,0.601
2020-12-10 04:45,0.603
2020-12-10 05:00,0.602
2020-12-10 05:15,0.599
2020-12-10 05:30,0.597
2020-12-10 05:45,0.591
2020-12-10 06:00,0.593
2020-12-10 06:15,0.590
2020-12-10 06:30,0.591
2020-12-10 06:45,0.587
2020-12-10 07:00,0.581
2020-12-10 07:15,0.577
2020-12-10 07:30,0.575
2020-12-10 07:45,0.572
2020-12-10 08:00,0.573
2020-12-10 08:15,0.572
2020-12-10 08:30,0.570
2020-12-10 08:45,0.568
2020-12-10 09:00,0.566
2020-12-10 09:15,0.571
2020-12-10 09:30,0.561
2020-12-10 09:45,0.561
2020-12-10 10:00,0.560
2020-12-10 10:15,0.553
2020-12-10 10:30,0.550
2020-12-10 10:45,0.551
2020-12-10 11:00,0.550
2020-12-10 11:15,0.550
2020-12-10 11:30,0.542
2020-12-10 11:45,0.546
2020-12-10 12:00,0.547
2020-12-10 12:15,0.543
2020-12-10 12:30,0.543
2020-12-10 12:45,0.539
2020-12-10 13:00,0.539
2020-12-10 13:15,0.533
2020-12-10 13:30,0.537
2020-12-10 13:45,0.535
2020-12-10 14:00,0.531
2020-12-10 14:15,0.532
2020-12-10 14:30,0.533
2020-12-10 14:45,0.532
2020-12-10 15:00,0.532
2020-12-10 15:15,0.530
2020-12-10 15:30,0.530
2020-12-10 15:45,0.527
2020-12-10 16:00,0.524
2020-12-10 16:15,0.525
2020-12-10 16:30,0.523
2020-12-10 16:45,0.522
2020-12-10 17:00,0.524
2020-12-10 17:15,0.526
2020-12-10 17:30,0.524
2020-12-10 17:45,0.528
2020-12-10 18:00,0.525
2020-12-10 18:15,0.526
2020-12-10 18:30,0.526
2020-12-10 18:45,0.526
2020-12-10 19:00,0.526
2020-12-10 19:15,0.529
2020-12-10 19:30,0.525
2020-12-10 19:45,0.531
2020-12-10 20:00,0.532
2020-12-10 20:15,0.534
2020-12-10 20:30,0.535
2020-12-10 20:45,0.539
2020-12-10 21:00,0.541
2020-12-10 21:15,0.543
2020-12-10 21:30,0.549
2020-12-10 21:45,0.553
2020-12-10 22:00,0.558
2020-12-10 22:15,0.565
2020-12-10 22:30,0.571
2020-12-10 22:45,0.583
2020-12-10 23:00,0.594
2020-12-10 23:15,0.607
2020-12-10 23:30,0.623
2020-12-10 23:45,0.639
2020-12-11 00:00,0.651
2020-12-11 00:15,0.662
2020-12-11 00:30,0.671
2020-12-11 00:45,0.680
2020-12-11 01:00,0.681
2020-12-11 01:15,0.686
2020-12-11 01:30,0.687
2020-12-11 01:45,0.688
2020-12-11 02:00,0.687
2020-12-11 02:15,0.684
2020-12-11 02:30,0.678
2020-12-11 02:45,0.674
2020-12-11 03:00,0.675
2020-12-11 03:15,0.670
2020-12-11 03:30,0.668
2020-12-11 03:45,0.666
2020-12-11 04:00,0.662
2020-12-11 04:15,0.659
2020-12-11 04:30,0.657
2020-12-11 04:45,0.654
2020-12-11 05:00,0.651
2020-12-11 05:15,0.652
2020-12-11 05:30,0.646
2020-12-11 05:45,0.647
2020-12-11 06:00,0.643
2020-12-11 06:15,0.643
2020-12-11 06:30,0.643
2020-12-11 06:45,0.637
2020-12-11 07:00,0.637
2020-12-11 07:15,0.635
2020-12-11 07:30,0.633
2020-12-11 07:45,0.631
2020-12-11 08:00,0.629
2020-12-11 08:15,0.627
2020-12-11 08:30,0.623
2020-12-11 08:45,0.622
2020-12-11 09:00,0.616
2020-12-11 09:15,0.617
2020-12-11 09:30,0.617
2020-12-11 09:45,0.611
2020-12-11 10:00,0.608
2020-12-11 10:15,0.606
2020-12-11 10:30,0.602
2020-12-11 10:45,0.600
2020-12-11 11:00,0.599
2020-12-11 11:15,0.597
2020-12-11 11:30,0.594
2020-12-11 11:45,0.592
2020-12-11 12:00,0.594
2020-12-11 12:15,0.588
2020-12-11 12:30,0.586
2020-12-11 12:45,0.584
2020-12-11 13:00,0.582
2020-12-11 13:15,0.577
2020-12-11 13:30,0.576
2020-12-11 13:45,0.569
2020-12-11 14:00,0.571
2020-12-11 14:15,0.571
2020-12-11 14:30,0.569
2020-12-11 14:45,0.567
2020-12-11 15:00,0.565
2020-12-11 15:15,0.565
2020-12-11 15:30,0.563
2020-12-11 15:45,0.559
2020-12-11 16:00,0.555
2020-12-11 16:15,0.553
2020-12-11 16:30,0.553
2020-12-11 16:45,0.549
2020-12-11 17:00,0.551
2020-12-11 17:15,0.548
2020-12-11 17:30,0.548
2020-12-11 17:45,0.546
2020-12-11 18:00,0.543
2020-12-11 18:15,0.543
2020-12-11 18:30,0.539
2020-12-11 18:45,0.540
2020-12-11 19:00,0.538
2020-12-11 19:15,0.536
2020-12-11 19:30,0.533
2020-12-11 19:45,0.534
2020-12-11 20:00,0.532
2020-12-11 20:15,0.533
2020-12-11 20:30,0.532
2020-12-11 20:45,0.531
2020-12-11 21:00,0.529
2020-12-11 21:15,0.528
2020-12-11 21:30,0.527
2020-12-11 21:45,0.526
2020-12-11 22:00,0.524
2020-12-11 22:15,0.524
2020-12-11 22:30,0.523
2020-12-11 22:45,0.521
2020-12-11 23:00,0.522
2020-12-11 23:15,0.523
2020-12-11 23:30,0.524
2020-12-11 23:45,0.524
2020-12-12 00:00,0.524
2020-12-12 00:15,0.524
2020-12-12 00:30,0.525
2020-12-12 00:45,0.527
2020-12-12 01:00,0.530
2020-12-12 01:15,0.535
2020-12-12 01:30,0.538
2020-12-12 01:45,0.541
2020-12-12 02:00,0.546
2020-12-12 02:15,0.546
2020-12-12 02:30,0.547
2020-12-12 02:45,0.547
2020-12-12 03:00,0.547
2020-12-12 03:15,0.546
2020-12-12 03:30,0.546
2020-12-12 03:45,0.544
2020-12-12 04:00,0.544
2020-12-12 04:15,0.545
2020-12-12 04:30,0.544
2020-12-12 04:45,0.543
2020-12-12 05:00,0.541
2020-12-12 05:15,0.539
2020-12-12 05:30,0.539
2020-12-12 05:45,0.534
2020-12-12 06:00,0.536
2020-12-12 06:15,0.534
2020-12-12 06:30,0.533
2020-12-12 06:45,0.533
2020-12-12 07:00,0.531
2020-12-12 07:15,0.531
2020-12-12 07:30,0.529
2020-12-12 07:45,0.529
2020-12-12 08:00,0.525
2020-12-12 08:15,0.526
2020-12-12 08:30,0.522
2020-12-12 08:45,0.519
2020-12-12 09:00,0.522
2020-12-12 09:15,0.518
2020-12-12 09:30,0.517
2020-12-12 09:45,0.516
2020-12-12 10:00,0.515
2020-12-12 10:15,0.514
2020-12-12 10:30,0.511
2020-12-12 10:45,0.512
2020-12-12 11:00,0.511
2020-12-12 11:15,0.508
2020-12-12 11:30,0.509
2020-12-12 11:45,0.507
2020-12-12 12:00,0.504
2020-12-12 12:15,0.505
2020-12-12 12:30,0.506
2020-12-12 12:45,0.505
2020-12-12 13:00,0.503
2020-12-12 13:15,0.502
2020-12-12 13:30,0.504
2020-12-12 13:45,0.503
2020-12-12 14:00,0.500
2020-12-12 14:15,0.498
2020-12-12 14:30,0.500
2020-12-12 14:45,0.500
2020-12-12 15:00,0.502
2020-12-12 15:15,0.502
2020-12-12 15:30,0.500
2020-12-12 15:45,0.500
2020-12-12 16:00,0.499
2020-12-12 16:15,0.498
2020-12-12 16:30,0.500
2020-12-12 16:45,0.501
2020-12-12 17:00,0.497
2020-12-12 17:15,0.501
2020-12-12 17:30,0.495
2020-12-12 17:45,0.501
2020-12-12 18:00,0.505
2020-12-12 18:15,0.501
2020-12-12 18:30,0.502
2020-12-12 18:45,0.498
2020-12-12 19:00,0.501
2020-12-12 19:15,0.503
2020-12-12 19:30,0.496
2020-12-12 19:45,0.496
2020-12-12 20:00,0.493
2020-12-12 20:15,0.497
2020-12-12 20:30,0.495
2020-12-12 20:45,0.498
2020-12-12 21:00,0.495
2020-12-12 21:15,0.493
2020-12-12 21:30,0.493
2020-12-12 21:45,0.492
2020-12-12 22:00,0.490
2020-12-12 22:15,0.490
2020-12-12 22:30,0.489
2020-12-12 22:45,0.490
2020-12-12 23:00,0.488
2020-12-12 23:15,0.486
2020-12-12 23:30,0.487
2020-12-12 23:45,0.484
2020-12-13 00:00,0.489
2020-12-13 00:15,0.485
2020-12-13 00:30,0.485
2020-12-13 00:45,0.486
2020-12-13 01:00,0.484
2020-12-13 01:15,0.482
2020-12-13 01:30,0.481
2020-12-13 01:45,0.484
2020-12-13 02:00,0.483
2020-12-13 02:15,0.486
2020-12-13 02:30,0.489
2020-12-13 02:45,0.491
2020-12-13 03:00,0.493
2020-12-13 03:15,0.498
2020-12-13 03:30,0.504
2020-12-13 03:45,0.506
2020-12-13 04:00,0.517
2020-12-13 04:15,0.533
2020-12-13 04:30,0.548
2020-12-13 04:45,0.561
2020-12-13 05:00,0.577
2020-12-13 05:15,0.587
2020-12-13 05:30,0.603
2020-12-13 05:45,0.612
2020-12-13 06:00,0.627
2020-12-13 06:15,0.645
2020-12-13 06:30,0.663
2020-12-13 06:45,0.678
2020-12-13 07:00,0.693
2020-12-13 07:15,0.707
2020-12-13 07:30,0.721
2020-12-13 07:45,0.735
2020-12-13 08:00,0.751
2020-12-13 08:15,0.771
2020-12-13 08:30,0.789
2020-12-13 08:45,0.809
2020-12-13 09:00,0.830
2020-12-13 09:15,0.855
2020-12-13 09:30,0.895
2020-12-13 09:45,0.935
2020-12-13 10:00,0.967
2020-12-13 10:15,0.995
2020-12-13 10:30,1.010
2020-12-13 10:45,1.017
2020-12-13 11:00,1.017
2020-12-13 11:15,1.013
2020-12-13 11:30,1.011
2020-12-13 11:45,1.000
2020-12-13 12:00,0.994
2020-12-13 12:15,0.982
2020-12-13 12:30,0.971
2020-12-13 12:45,0.965
2020-12-13 13:00,0.960
2020-12-13 13:15,0.954
2020-12-13 13:30,0.954
2020-12-13 13:45,0.962
2020-12-13 14:00,0.968
2020-12-13 14:15,0.998
2020-12-13 14:30,1.020
2020-12-13 14:45,1.043
2020-12-13 15:00,1.075
2020-12-13 15:15,1.098
2020-12-13 15:30,1.150
2020-12-13 15:45,1.216
2020-12-13 16:00,1.275
2020-12-13 16:15,1.335
2020-12-13 16:30,1.392
2020-12-13 16:45,1.432
2020-12-13 17:00,1.452
2020-12-13 17:15,1.471
2020-12-13 17:30,1.473
2020-12-13 17:45,1.480
2020-12-13 18:00,1.471
2020-12-13 18:15,1.462
2020-12-13 18:30,1.453
2020-12-13 18:45,1.441
2020-12-13 19:00,1.420
2020-12-13 19:15,1.397
2020-12-13 19:30,1.366
2020-12-13 19:45,1.339
2020-12-13 20:00,1.310
2020-12-13 20:15,1.272
2020-12-13 20:30,1.243
2020-12-13 20:45,1.217
2020-12-13 21:00,1.188
2020-12-13 21:15,1.164
2020-12-13 21:30,1.142
2020-12-13 21:45,1.114
2020-12-13 22:00,1.100
2020-12-13 22:15,1.077
2020-12-13 22:30,1.064
2020-12-13 22:45,1.048
2020-12-13 23:00,1.034
2020-12-13 23:15,1.019
2020-12-13 23:30,1.001
2020-12-13 23:45,1.000
2020-12-14 00:00,0.985
2020-12-14 00:15,0.978
2020-12-14 00:30,0.966
2020-12-14 00:45,0.963
2020-12-14 01:00,0.955
2020-12-14 01:15,0.947
2020-12-14 01:30,0.941
2020-12-14 01:45,0.933
2020-12-14 02:00,0.929
2020-12-14 02:15,0.919
2020-12-14 02:30,0.912
2020-12-14 02:45,0.904
2020-12-14 03:00,0.899
2020-12-14 03:15,0.889
2020-12-14 03:30,0.886
2020-12-14 03:45,0.879
2020-12-14 04:00,0.873
2020-12-14 04:15,0.864
2020-12-14 04:30,0.861
2020-12-14 04:45,0.850
2020-12-14 05:00,0.845
2020-12-14 05:15,0.837
2020-12-14 05:30,0.826
2020-12-14 05:45,0.819
2020-12-14 06:00,0.814
2020-12-14 06:15,0.803
2020-12-14 06:30,0.795
2020-12-14 06:45,0.790
2020-12-14 07:00,0.784
2020-12-14 07:15,0.782
2020-12-14 07:30,0.776
2020-12-14 07:45,0.770
2020-12-14 08:00,0.764
2020-12-14 08:15,0.758
2020-12-14 08:30,0.752
2020-12-14 08:45,0.747
2020-12-14 09:00,0.741
2020-12-14 09:15,0.738
2020-12-14 09:30,0.733
2020-12-14 09:45,0.731
2020-12-14 10:00,0.728
2020-12-14 10:15,0.724
2020-12-14 10:30,0.718
2020-12-14 10:45,0.714
2020-12-14 11:00,0.710
2020-12-14 11:15,0.704
2020-12-14 11:30,0.702
2020-12-14 11:45,0.697
2020-12-14 12:00,0.691
2020-12-14 12:15,0.689
2020-12-14 12:30,0.687
2020-12-14 12:45,0.683
2020-12-14 13:00,0.682
2020-12-14 13:15,0.678
2020-12-14 13:30,0.677
2020-12-14 13:45,0.675
2020-12-14 14:00,0.671
2020-12-14 14:15,0.667
2020-12-14 14:30,0.666
2020-12-14 14:45,0.664
2020-12-14 15:00,0.662
2020-12-14 15:15,0.659
2020-12-14 15:30,0.655
2020-12-14 15:45,0.654
2020-12-14 16:00,0.651
2020-12-14 16:15,0.648
2020-12-14 16:30,0.643
2020-12-14 16:45,0.640
2020-12-14 17:00,0.638
2020-12-14 17:15,0.635
2020-12-14 17:30,0.631
2020-12-14 17:45,0.627
2020-12-14 18:00,0.627
2020-12-14 18:15,0.624
2020-12-14 18:30,0.622
2020-12-14 18:45,0.617
2020-12-14 19:00,0.615
2020-12-14 19:15,0.611
2020-12-14 19:30,0.609
2020-12-14 19:45,0.606
2020-12-14 20:00,0.604
2020-12-14 20:15,0.599
2020-12-14 20:30,0.599
2020-12-14 20:45,0.598
2020-12-14 21:00,0.594
2020-12-14 21:15,0.593
2020-12-14 21:30,0.591
2020-12-14 21:45,0.588
2020-12-14 22:00,0.585
2020-12-14 22:15,0.582
2020-12-14 22:30,0.580
2020-12-14 22:45,0.577
2020-12-14 23:00,0.576
2020-12-14 23:15,0.574
2020-12-14 23:30,0.572
2020-12-14 23:45,0.569
2020-12-15 00:00,0.569
2020-12-15 00:15,0.568
2020-12-15 00:30,0.565
2020-12-15 00:45,0.565
2020-12-15 01:00,0.560
2020-12-15 01:15,0.558
2020-12-15 01:30,0.556
2020-12-15 01:45,0.555
2020-12-15 02:00,0.553
2020-12-15 02:15,0.553
2020-12-15 02:30,0.550
2020-12-15 02:45,0.549
2020-12-15 03:00,0.550
2020-12-15 03:15,0.547
2020-12-15 03:30,0.547
2020-12-15 03:45,0.545
2020-12-15 04:00,0.540
2020-12-15 04:15,0.539
2020-12-15 04:30,0.537
2020-12-15 04:45,0.535
2020-12-15 05:00,0.534
2020-12-15 05:15,0.534
2020-12-15 05:30,0.534
2020-12-15 05:45,0.533
2020-12-15 06:00,0.532
2020-12-15 06:15,0.529
2020-12-15 06:30,0.527
2020-12-15 06:45,0.528
2020-12-15 07:00,0.524
2020-12-15 07:15,0.524
2020-12-15 07:30,0.521
2020-12-15 07:45,0.521
2020-12-15 08:00,0.520
2020-12-15 08:15,0.520
2020-12-15 08:30,0.519
2020-12-15 08:45,0.520
2020-12-15 09:00,0.515
2020-12-15 09:15,0.514
2020-12-15 09:30,0.510
2020-12-15 09:45,0.512
2020-12-15 10:00,0.509
2020-12-15 10:15,0.510
2020-12-15 10:30,0.508
2020-12-15 10:45,0.508
2020-12-15 11:00,0.509
2020-12-15 11:15,0.508
2020-12-15 11:30,0.508
2020-12-15 11:45,0.507
2020-12-15 12:00,0.496
2020-12-15 12:15,0.491
2020-12-15 12:30,0.489
2020-12-15 12:45,0.488
2020-12-15 13:00,0.487
2020-12-15 13:15,0.485
2020-12-15 13:30,0.484
2020-12-15 13:45,0.488
2020-12-15 14:00,0.485
2020-12-15 14:15,0.483
2020-12-15 14:30,0.481
2020-12-15 14:45,0.479
2020-12-15 15:00,0.478
2020-12-15 15:15,0.481
2020-12-15 15:30,0.478
2020-12-15 15:45,0.478
2020-12-15 16:00,0.477
2020-12-15 16:15,0.476
2020-12-15 16:30,0.475
2020-12-15 16:45,0.478
2020-12-15 17:00,0.477
2020-12-15 17:15,0.475
2020-12-15 17:30,0.473
2020-12-15 17:45,0.472
2020-12-15 18:00,0.472
2020-12-15 18:15,0.470
2020-12-15 18:30,0.470
2020-12-15 18:45,0.472
2020-12-15 19:00,0.472
2020-12-15 19:15,0.469
2020-12-15 19:30,0.469
2020-12-15 19:45,0.469
2020-12-15 20:00,0.468
2020-12-15 20:15,0.469
2020-12-15 20:30,0.472
2020-12-15 20:45,0.467
2020-12-15 21:00,0.467
2020-12-15 21:15,0.466
2020-12-15 21:30,0.467
2020-12-15 21:45,0.472
2020-12-15 22:00,0.469
2020-12-15 22:15,0.472
2020-12-15 22:30,0.472
2020-12-15 22:45,0.469
2020-12-15 23:00,0.470
2020-12-15 23:15,0.471
2020-12-15 23:30,0.472
2020-12-15 23:45,0.474
2020-12-16 00:00,0.473
2020-12-16 00:15,0.473
2020-12-16 00:30,0.475
2020-12-16 00:45,0.475
2020-12-16 01:00,0.475
2020-12-16 01:15,0.473
2020-12-16 01:30,0.473
2020-12-16 01:45,0.474
2020-12-16 02:00,0.475
2020-12-16 02:15,0.475
2020-12-16 02:30,0.478
2020-12-16 02:45,0.477
2020-12-16 03:00,0.479
2020-12-16 03:15,0.483
2020-12-16 03:30,0.487
2020-12-16 03:45,0.493
2020-12-16 04:00,0.499
2020-12-16 04:15,0.507
2020-12-16 04:30,0.513
2020-12-16 04:45,0.520
2020-12-16 05:00,0.528
2020-12-16 05:15,0.540
2020-12-16 05:30,0.547
2020-12-16 05:45,0.559
2020-12-16 06:00,0.570
2020-12-16 06:15,0.584
2020-12-16 06:30,0.596
2020-12-16 06:45,0.611
2020-12-16 07:00,0.629
2020-12-16 07:15,0.667
2020-12-16 07:30,0.741
2020-12-16 07:45,0.844
2020-12-16 08:00,0.950
2020-12-16 08:15,1.026
2020-12-16 08:30,1.069
2020-12-16 08:45,1.090
2020-12-16 09:00,1.096
2020-12-16 09:15,1.092
2020-12-16 09:30,1.086
2020-12-16 09:45,1.070
2020-12-16 10:00,1.056
2020-12-16 10:15,1.040
2020-12-16 10:30,1.027
2020-12-16 10:45,1.019
2020-12-16 11:00,1.001
2020-12-16 11:15,0.997
2020-12-16 11:30,0.985
2020-12-16 11:45,0.982
2020-12-16 12:00,0.981
2020-12-16 12:15,0.984
2020-12-16 12:30,0.990
2020-12-16 12:45,1.003
2020-12-16 13:00,1.019
2020-12-16 13:15,1.040
2020-12-16 13:30,1.062
2020-12-16 13:45,1.075
2020-12-16 14:00,1.087
2020-12-16 14:15,1.088
2020-12-16 14:30,1.084
2020-12-16 14:45,1.074
2020-12-16 15:00,1.063
2020-12-16 15:15,1.048
2020-12-16 15:30,1.031
2020-12-16 15:45,1.015
2020-12-16 16:00,0.999
2020-12-16 16:15,0.981
2020-12-16 16:30,0.964
2020-12-16 16:45,0.949
2020-12-16 17:00,0.933
2020-12-16 17:15,0.918
2020-12-16 17:30,0.908
2020-12-16 17:45,0.895
2020-12-16 18:00,0.889
2020-12-16 18:15,0.879
2020-12-16 18:30,0.875
2020-12-16 18:45,0.867
2020-12-16 19:00,0.860
2020-12-16 19:15,0.855
2020-12-16 19:30,0.846
2020-12-16 19:45,0.841
2020-12-16 20:00,0.833
2020-12-16 20:15,0.823
2020-12-16 20:30,0.813
2020-12-16 20:45,0.805
2020-12-16 21:00,0.799
2020-12-16 21:15,0.790
2020-12-16 21:30,0.783
2020-12-16 21:45,0.777
2020-12-16 22:00,0.771
2020-12-16 22:15,0.763
2020-12-16 22:30,0.754
2020-12-16 22:45,0.749
2020-12-16 23:00,0.744
2020-12-16 23:15,0.736
2020-12-16 23:30,0.733
2020-12-16 23:45,0.730
2020-12-17 00:00,0.725
2020-12-17 00:15,0.722
2020-12-17 00:30,0.718
2020-12-17 00:45,0.712
2020-12-17 01:00,0.710
2020-12-17 01:15,0.704
2020-12-17 01:30,0.699
2020-12-17 01:45,0.694
2020-12-17 02:00,0.690
2020-12-17 02:15,0.687
2020-12-17 02:30,0.680
2020-12-17 02:45,0.675
2020-12-17 03:00,0.674
2020-12-17 03:15,0.668
2020-12-17 03:30,0.668
2020-12-17 03:45,0.661
2020-12-17 04:00,0.653
2020-12-17 04:15,0.653
2020-12-17 04:30,0.648
2020-12-17 04:45,0.645
2020-12-17 05:00,0.648
2020-12-17 05:15,0.643
2020-12-17 05:30,0.644
2020-12-17 05:45,0.643
2020-12-17 06:00,0.644
2020-12-17 06:15,0.647
2020-12-17 06:30,0.651
2020-12-17 06:45,0.649
2020-12-17 07:00,0.655
2020-12-17 07:15,0.664
2020-12-17 07:30,0.671
2020-12-17 07:45,0.683
2020-12-17 08:00,0.694
2020-12-17 08:15,0.710
2020-12-17 08:30,0.730
2020-12-17 08:45,0.753
2020-12-17 09:00,0.776
2020-12-17 09:15,0.799
2020-12-17 09:30,0.821
2020-12-17 09:45,0.840
2020-12-17 10:00,0.853
2020-12-17 10:15,0.858
2020-12-17 10:30,0.857
2020-12-17 10:45,0.857
2020-12-17 11:00,0.852
2020-12-17 11:15,0.841
2020-12-17 11:30,0.833
2020-12-17 11:45,0.821
2020-12-17 12:00,0.815
2020-12-17 12:15,0.800
2020-12-17 12:30,0.795
2020-12-17 12:45,0.785
2020-12-17 13:00,0.774
2020-12-17 13:15,0.769
2020-12-17 13:30,0.759
2020-12-17 13:45,0.752
2020-12-17 14:00,0.744
2020-12-17 14:15,0.737
2020-12-17 14:30,0.730
2020-12-17 14:45,0.724
2020-12-17 15:00,0.718
2020-12-17 15:15,0.712
2020-12-17 15:30,0.709
2020-12-17 15:45,0.702
2020-12-17 16:00,0.693
2020-12-17 16:15,0.691
2020-12-17 16:30,0.687
2020-12-17 16:45,0.683
2020-12-17 17:00,0.679
2020-12-17 17:15,0.675
2020-12-17 17:30,0.675
2020-12-17 17:45,0.673
2020-12-17 18:00,0.667
2020-12-17 18:15,0.669
2020-12-17 18:30,0.662
2020-12-17 18:45,0.662
2020-12-17 19:00,0.660
2020-12-17 19:15,0.662
2020-12-17 19:30,0.662
2020-12-17 19:45,0.667
2020-12-17 20:00,0.672
2020-12-17 20:15,0.683
2020-12-17 20:30,0.707
2020-12-17 20:45,0.739
2020-12-17 21:00,0.777
2020-12-17 21:15,0.809
2020-12-17 21:30,0.831
2020-12-17 21:45,0.840
2020-12-17 22:00,0.846
2020-12-17 22:15,0.845
2020-12-17 22:30,0.846
2020-12-17 22:45,0.843
2020-12-17 23:00,0.845
2020-12-17 23:15,0.842
2020-12-17 23:30,0.841
2020-12-17 23:45,0.836
2020-12-18 00:00,0.834
2020-12-18 00:15,0.829
2020-12-18 00:30,0.826
2020-12-18 00:45,0.821
2020-12-18 01:00,0.816
2020-12-18 01:15,0.812
2020-12-18 01:30,0.806
2020-12-18 01:45,0.802
2020-12-18 02:00,0.802
2020-12-18 02:15,0.802
2020-12-18 02:30,0.816
2020-12-18 02:45,0.838
2020-12-18 03:00,0.877
2020-12-18 03:15,0.923
2020-12-18 03:30,0.961
2020-12-18 03:45,0.991
2020-12-18 04:00,1.009
2020-12-18 04:15,1.010
2020-12-18 04:30,1.007
2020-12-18 04:45,0.996
2020-12-18 05:00,0.980
2020-12-18 05:15,0.966
2020-12-18 05:30,0.945
2020-12-18 05:45,0.931
2020-12-18 06:00,0.915
2020-12-18 06:15,0.899
2020-12-18 06:30,0.882
2020-12-18 06:45,0.866
2020-12-18 07:00,0.853
2020-12-18 07:15,0.840
2020-12-18 07:30,0.828
2020-12-18 07:45,0.816
2020-12-18 08:00,0.807
2020-12-18 08:15,0.798
2020-12-18 08:30,0.787
2020-12-18 08:45,0.779
2020-12-18 09:00,0.773
2020-12-18 09:15,0.765
2020-12-18 09:30,0.757
2020-12-18 09:45,0.750
2020-12-18 10:00,0.744
2020-12-18 10:15,0.740
2020-12-18 10:30,0.733
2020-12-18 10:45,0.727
2020-12-18 11:00,0.723
2020-12-18 11:15,0.721
2020-12-18 11:30,0.720
2020-12-18 11:45,0.716
2020-12-18 12:00,0.714
2020-12-18 12:15,0.711
2020-12-18 12:30,0.708
2020-12-18 12:45,0.705
2020-12-18 13:00,0.705
2020-12-18 13:15,0.704
2020-12-18 13:30,0.703
2020-12-18 13:45,0.702
2020-12-18 14:00,0.707
2020-12-18 14:15,0.710
2020-12-18 14:30,0.712
2020-12-18 14:45,0.716
2020-12-18 15:00,0.723
2020-12-18 15:15,0.728
2020-12-18 15:30,0.738
2020-12-18 15:45,0.747
2020-12-18 16:00,0.761
2020-12-18 16:15,0.772
2020-12-18 16:30,0.783
2020-12-18 16:45,0.791
2020-12-18 17:00,0.794
2020-12-18 17:15,0.795
2020-12-18 17:30,0.792
2020-12-18 17:45,0.787
2020-12-18 18:00,0.777
2020-12-18 18:15,0.772
2020-12-18 18:30,0.765
2020-12-18 18:45,0.760
2020-12-18 19:00,0.753
2020-12-18 19:15,0.745
2020-12-18 19:30,0.740
2020-12-18 19:45,0.733
2020-12-18 20:00,0.727
2020-12-18 20:15,0.720
2020-12-18 20:30,0.714
2020-12-18 20:45,0.707
2020-12-18 21:00,0.702
2020-12-18 21:15,0.696
2020-12-18 21:30,0.691
2020-12-18 21:45,0.687
2020-12-18 22:00,0.682
2020-12-18 22:15,0.679
2020-12-18 22:30,0.674
2020-12-18 22:45,0.670
2020-12-18 23:00,0.666
2020-12-18 23:15,0.661
2020-12-18 23:30,0.658
2020-12-18 23:45,
2020-12-19 00:00,0.650
2020-12-19 00:15,0.646
2020-12-19 00:30,0.641
2020-12-19 00:45,0.638
2020-12-19 01:00,0.636
2020-12-19 01:15,0.632
2020-12-19 01:30,0.629
2020-12-19 01:45,0.627
2020-12-19 02:00,0.623
2020-12-19 02:15,0.620
2020-12-19 02:30,0.616
2020-12-19 02:45,0.612
2020-12-19 03:00,0.610
2020-12-19 03:15,0.606
2020-12-19 03:30,0.604
2020-12-19 03:45,0.604
2020-12-19 04:00,0.600
2020-12-19 04:15,0.597
2020-12-19 04:30,0.596
2020-12-19 04:45,0.593
2020-12-19 05:00,0.591
2020-12-19 05:15,0.587
2020-12-19 05:30,0.585
2020-12-19 05:45,0.584
2020-12-19 06:00,0.581
2020-12-19 06:15,0.579
2020-12-19 06:30,0.578
2020-12-19 06:45,0.576
2020-12-19 07:00,0.575
2020-12-19 07:15,0.574
2020-12-19 07:30,0.571
2020-12-19 07:45,0.568
2020-12-19 08:00,0.566
2020-12-19 08:15,0.564
2020-12-19 08:30,0.561
2020-12-19 08:45,0.559
2020-12-19 09:00,0.556
2020-12-19 09:15,0.557
2020-12-19 09:30,0.557
2020-12-19 09:45,0.555
2020-12-19 10:00,0.553
2020-12-19 10:15,0.551
2020-12-19 10:30,0.548
2020-12-19 10:45,0.548
2020-12-19 11:00,0.546
2020-12-19 11:15,0.544
2020-12-19 11:30,0.543
2020-12-19 11:45,0.542
2020-12-19 12:00,0.540
2020-12-19 12:15,0.539
2020-12-19 12:30,0.539
2020-12-19 12:45,0.539
2020-12-19 13:00,0.538
2020-12-19 13:15,0.536
2020-12-19 13:30,0.538
2020-12-19 13:45,0.534
2020-12-19 14:00,0.537
2020-12-19 14:15,0.534
2020-12-19 14:30,0.534
2020-12-19 14:45,0.535
2020-12-19 15:00,0.535
2020-12-19 15:15,0.537
2020-12-19 15:30,0.536
2020-12-19 15:45,0.533
2020-12-19 16:00,0.533
2020-12-19 16:15,0.532
2020-12-19 16:30,0.531
2020-12-19 16:45,0.533
2020-12-19 17:00,0.533
2020-12-19 17:15,0.530
2020-12-19 17:30,0.531
2020-12-19 17:45,0.532
2020-12-19 18:00,0.535
2020-12-19 18:15,0.536
2020-12-19 18:30,0.537
2020-12-19 18:45,0.538
2020-12-19 19:00,0.541
2020-12-19 19:15,0.543
2020-12-19 19:30,0.547
2020-12-19 19:45,0.552
2020-12-19 20:00,0.562
2020-12-19 20:15,0.573
2020-12-19 20:30,0.585
2020-12-19 20:45,0.597
2020-12-19 21:00,0.604
2020-12-19 21:15,0.610
2020-12-19 21:30,0.611
2020-12-19 21:45,0.613
2020-12-19 22:00,0.612
2020-12-19 22:15,0.610
2020-12-19 22:30,0.608
2020-12-19 22:45,0.607
2020-12-19 23:00,0.601
2020-12-19 23:15,0.603
2020-12-19 23:30,0.598
2020-12-19 23:45,0.597
2020-12-20 00:00,0.594
2020-12-20 00:15,0.592
2020-12-20 00:30,0.589
2020-12-20 00:45,0.587
2020-12-20 01:00,0.586
2020-12-20 01:15,0.582
2020-12-20 01:30,0.582
2020-12-20 01:45,0.583
2020-12-20 02:00,0.582
2020-12-20 02:15,0.583
2020-12-20 02:30,0.580
2020-12-20 02:45,0.577
2020-12-20 03:00,0.582
2020-12-20 03:15,0.577
2020-12-20 03:30,0.578
2020-12-20 03:45,0.578
2020-12-20 04:00,0.581
2020-12-20 04:15,0.585
2020-12-20 04:30,0.587
2020-12-20 04:45,0.593
2020-12-20 05:00,0.595
2020-12-20 05:15,0.600
2020-12-20 05:30,0.601
2020-12-20 05:45,0.606
2020-12-20 06:00,0.605
2020-12-20 06:15,0.606
2020-12-20 06:30,0.609
2020-12-20 06:45,0.608
2020-12-20 07:00,0.609
2020-12-20 07:15,0.607
2020-12-20 07:30,0.607
2020-12-20 07:45,0.605
2020-12-20 08:00,0.607
2020-12-20 08:15,0.609
2020-12-20 08:30,0.614
2020-12-20 08:45,0.620
2020-12-20 09:00,0.628
2020-12-20 09:15,0.645
2020-12-20 09:30,0.661
2020-12-20 09:45,0.675
2020-12-20 10:00,0.687
2020-12-20 10:15,0.700
2020-12-20 10:30,0.706
2020-12-20 10:45,0.712
2020-12-20 11:00,0.717
2020-12-20 11:15,0.718
2020-12-20 11:30,0.715
2020-12-20 11:45,0.711
2020-12-20 12:00,0.709
2020-12-20 12:15,0.705
2020-12-20 12:30,0.701
2020-12-20 12:45,0.696
2020-12-20 13:00,0.690
2020-12-20 13:15,0.685
2020-12-20 13:30,0.681
2020-12-20 13:45,0.675
2020-12-20 14:00,0.669
2020-12-20 14:15,0.665
2020-12-20 14:30,0.662
2020-12-20 14:45,0.658
2020-12-20 15:00,0.658
2020-12-20 15:15,0.652
2020-12-20 15:30,0.649
2020-12-20 15:45,0.643
2020-12-20 16:00,0.642
2020-12-20 16:15,0.637
2020-12-20 16:30,0.637
2020-12-20 16:45,0.631
2020-12-20 17:00,0.628
2020-12-20 17:15,0.626
2020-12-20 17:30,0.624
2020-12-20 17:45,0.626
2020-12-20 18:00,0.626
2020-12-20 18:15,0.627
2020-12-20 18:30,0.628
2020-12-20 18:45,0.631
2020-12-20 19:00,0.637
2020-12-20 19:15,0.645
2020-12-20 19:30,0.660
2020-12-20 19:45,0.678
2020-12-20 20:00,0.700
2020-12-20 20:15,0.726
2020-12-20 20:30,0.761
2020-12-20 20:45,0.799
2020-12-20 21:00,0.856
2020-12-20 21:15,0.955
2020-12-20 21:30,1.088
2020-12-20 21:45,1.212
2020-12-20 22:00,1.302
2020-12-20 22:15,1.357
2020-12-20 22:30,1.391
2020-12-20 22:45,1.414
2020-12-20 23:00,1.420
2020-12-20 23:15,1.422
2020-12-20 23:30,1.412
2020-12-20 23:45,1.398
2020-12-21 00:00,1.381
2020-12-21 00:15,1.360
2020-12-21 00:30,1.343
2020-12-21 00:45,1.319
2020-12-21 01:00,1.293
2020-12-21 01:15,1.259
2020-12-21 01:30,1.233
2020-12-21 01:45,1.207
2020-12-21 02:00,1.183
2020-12-21 02:15,1.157
2020-12-21 02:30,1.134
2020-12-21 02:45,1.111
2020-12-21 03:00,1.090
2020-12-21 03:15,1.065
2020-12-21 03:30,1.044
2020-12-21 03:45,1.020
2020-12-21 04:00,1.005
2020-12-21 04:15,0.984
2020-12-21 04:30,0.966
2020-12-21 04:45,0.950
2020-12-21 05:00,0.932
2020-12-21 05:15,0.916
2020-12-21 05:30,0.900
2020-12-21 05:45,0.884
2020-12-21 06:00,0.870
2020-12-21 06:15,0.856
2020-12-21 06:30,0.843
2020-12-21 06:45,0.831
2020-12-21 07:00,0.824
2020-12-21 07:15,0.810
2020-12-21 07:30,0.805
2020-12-21 07:45,0.791
2020-12-21 08:00,0.781
2020-12-21 08:15,0.774
2020-12-21 08:30,0.767
2020-12-21 08:45,0.761
2020-12-21 09:00,0.753
2020-12-21 09:15,0.742
2020-12-21 09:30,0.737
2020-12-21 09:45,0.731
2020-12-21 10:00,0.727
2020-12-21 10:15,0.719
2020-12-21 10:30,0.712
2020-12-21 10:45,0.707
2020-12-21 11:00,0.703
2020-12-21 11:15,0.698
2020-12-21 11:30,0.692
2020-12-21 11:45,0.686
2020-12-21 12:00,0.686
2020-12-21 12:15,0.678
2020-12-21 12:30,0.680
2020-12-21 12:45,0.676
2020-12-21 13:00,0.673
2020-12-21 13:15,0.671
2020-12-21 13:30,0.671
2020-12-21 13:45,0.666
2020-12-21 14:00,0.669
2020-12-21 14:15,0.669
2020-12-21 14:30,0.665
2020-12-21 14:45,0.667
2020-12-21 15:00,0.665
2020-12-21 15:15,0.671
2020-12-21 15:30,0.670
2020-12-21 15:45,0.674
2020-12-21 16:00,0.678
2020-12-21 16:15,0.680
2020-12-21 16:30,0.681
2020-12-21 16:45,0.685
2020-12-21 17:00,0.685
2020-12-21 17:15,0.690
2020-12-21 17:30,0.688
2020-12-21 17:45,0.692
2020-12-21 18:00,0.694
2020-12-21 18:15,0.696
2020-12-21 18:30,0.698
2020-12-21 18:45,0.697
2020-12-21 19:00,0.697
2020-12-21 19:15,0.694
2020-12-21 19:30,0.693
2020-12-21 19:45,0.691
2020-12-21 20:00,0.687
2020-12-21 20:15,0.685
2020-12-21 20:30,0.681
2020-12-21 20:45,0.678
2020-12-21 21:00,0.678
2020-12-21 21:15,0.673
2020-12-21 21:30,0.666
2020-12-21 21:45,0.664
2020-12-21 22:00,0.659
2020-12-21 22:15,0.655
2020-12-21 22:30,0.650
2020-12-21 22:45,0.644
2020-12-21 23:00,0.642
2020-12-21 23:15,0.638
2020-12-21 23:30,0.636
2020-12-21 23:45,0.635
2020-12-22 00:00,0.630
2020-12-22 00:15,0.626
2020-12-22 00:30,0.624
2020-12-22 00:45,0.619
2020-12-22 01:00,0.616
2020-12-22 01:15,0.615
2020-12-22 01:30,0.609
2020-12-22 01:45,0.607
2020-12-22 02:00,0.608
2020-12-22 02:15,0.600
2020-12-22 02:30,0.601
2020-12-22 02:45,0.600
2020-12-22 03:00,0.597
2020-12-22 03:15,0.591
2020-12-22 03:30,0.593
2020-12-22 03:45,0.587
2020-12-22 04:00,0.587
2020-12-22 04:15,0.584
2020-12-22 04:30,0.580
2020-12-22 04:45,0.578
2020-12-22 05:00,0.579
2020-12-22 05:15,0.577
2020-12-22 05:30,0.574
2020-12-22 05:45,0.574
2020-12-22 06:00,0.571
2020-12-22 06:15,0.564
2020-12-22 06:30,0.565
2020-12-22 06:45,0.565
2020-12-22 07:00,0.563
2020-12-22 07:15,0.556
2020-12-22 07:30,0.561
2020-12-22 07:45,0.555
2020-12-22 08:00,0.557
2020-12-22 08:15,0.556
2020-12-22 08:30,0.554
2020-12-22 08:45,0.548
2020-12-22 09:00,0.545
2020-12-22 09:15,0.544
2020-12-22 09:30,0.542
2020-12-22 09:45,0.542
2020-12-22 10:00,0.543
2020-12-22 10:15,0.541
2020-12-22 10:30,0.536
2020-12-22 10:45,0.540
2020-12-22 11:00,0.541
2020-12-22 11:15,0.537
2020-12-22 11:30,0.533
2020-12-22 11:45,0.534
2020-12-22 12:00,0.536
2020-12-22 12:15,0.528
2020-12-22 12:30,0.528
2020-12-22 12:45,0.527
2020-12-22 13:00,0.527
2020-12-22 13:15,0.524
2020-12-22 13:30,0.525
2020-12-22 13:45,0.525
2020-12-22 14:00,0.525
2020-12-22 14:15,0.527
2020-12-22 14:30,0.522
2020-12-22 14:45,0.516
2020-12-22 15:00,0.516
2020-12-22 15:15,0.516
2020-12-22 15:30,0.511
2020-12-22 15:45,0.510
2020-12-22 16:00,0.513
2020-12-22 16:15,0.516
2020-12-22 16:30,0.516
2020-12-22 16:45,0.512
2020-12-22 17:00,0.510
2020-12-22 17:15,0.506
2020-12-22 17:30,0.507
2020-12-22 17:45,0.508
2020-12-22 18:00,0.510
2020-12-22 18:15,0.498
2020-12-22 18:30,0.504
2020-12-22 18:45,0.506
2020-12-22 19:00,0.509
2020-12-22 19:15,0.502
2020-12-22 19:30,0.500
2020-12-22 19:45,0.499
2020-12-22 20:00,0.502
2020-12-22 20:15,0.503
2020-12-22 20:30,0.501
2020-12-22 20:45,0.498
2020-12-22 21:00,0.497
2020-12-22 21:15,0.496
2020-12-22 21:30,0.500
2020-12-22 21:45,0.496
2020-12-22 22:00,0.498
2020-12-22 22:15,0.500
2020-12-22 22:30,0.493
2020-12-22 22:45,0.492
2020-12-22 23:00,0.494
2020-12-22 23:15,0.492
2020-12-22 23:30,0.492
2020-12-22 23:45,0.489
2020-12-23 00:00,0.490
2020-12-23 00:15,0.493
2020-12-23 00:30,0.491
2020-12-23 00:45,0.492
2020-12-23 01:00,0.488
2020-12-23 01:15,0.488
2020-12-23 01:30,0.488
2020-12-23 01:45,0.484
2020-12-23 02:00,0.488
2020-12-23 02:15,0.486
2020-12-23 02:30,0.485
2020-12-23 02:45,0.482
2020-12-23 03:00,0.484
2020-12-23 03:15,0.485
2020-12-23 03:30,0.483
2020-12-23 03:45,0.483
2020-12-23 04:00,0.483
2020-12-23 04:15,0.480
2020-12-23 04:30,0.476
2020-12-23 04:45,0.478
2020-12-23 05:00,0.478
2020-12-23 05:15,0.474
2020-12-23 05:30,0.477
2020-12-23 05:45,0.476
2020-12-23 06:00,0.477
2020-12-23 06:15,0.476
2020-12-23 06:30,0.475
2020-12-23 06:45,0.471
2020-12-23 07:00,0.475
2020-12-23 07:15,0.477
2020-12-23 07:30,0.472
2020-12-23 07:45,0.474
2020-12-23 08:00,0.473
2020-12-23 08:15,0.475
2020-12-23 08:30,0.470
2020-12-23 08:45,0.472
2020-12-23 09:00,0.472
2020-12-23 09:15,0.470
2020-12-23 09:30,0.467
2020-12-23 09:45,0.470
2020-12-23 10:00,0.467
2020-12-23 10:15,0.466
2020-12-23 10:30,0.467
2020-12-23 10:45,0.468
2020-12-23 11:00,0.467
2020-12-23 11:15,0.467
2020-12-23 11:30,0.465
2020-12-23 11:45,0.467
2020-12-23 12:00,0.464
2020-12-23 12:15,0.471
2020-12-23 12:30,0.465
2020-12-23 12:45,0.461
2020-12-23 13:00,0.464
2020-12-23 13:15,0.466
2020-12-23 13:30,0.462
2020-12-23 13:45,0.461
2020-12-23 14:00,0.461
2020-12-23 14:15,0.463
2020-12-23 14:30,0.461
2020-12-23 14:45,0.458
2020-12-23 15:00,0.458
2020-12-23 15:15,0.462
2020-12-23 15:30,0.460
2020-12-23 15:45,0.458
2020-12-23 16:00,0.461
2020-12-23 16:15,0.457
2020-12-23 16:30,0.459
2020-12-23 16:45,0.458
2020-12-23 17:00,0.458
2020-12-23 17:15,0.457
2020-12-23 17:30,0.456
2020-12-23 17:45,0.458
2020-12-23 18:00,0.454
2020-12-23 18:15,0.457
2020-12-23 18:30,0.456
2020-12-23 18:45,0.458
2020-12-23 19:00,0.461
2020-12-23 19:15,0.458
2020-12-23 19:30,0.461
2020-12-23 19:45,0.460
2020-12-23 20:00,0.459
2020-12-23 20:15,0.459
2020-12-23 20:30,0.456
2020-12-23 20:45,0.455
2020-12-23 21:00,0.463
2020-12-23 21:15,0.459
2020-12-23 21:30,0.462
2020-12-23 21:45,0.461
2020-12-23 22:00,0.459
2020-12-23 22:15,0.458
2020-12-23 22:30,0.455
2020-12-23 22:45,0.459
2020-12-23 23:00,0.455
2020-12-23 23:15,0.456
2020-12-23 23:30,0.455
2020-12-23 23:45,0.455
2020-12-24 00:00,0.456
2020-12-24 00:15,0.457
2020-12-24 00:30,0.455
2020-12-24 00:45,0.459
2020-12-24 01:00,0.458
2020-12-24 01:15,0.454
2020-12-24 01:30,0.457
2020-12-24 01:45,0.457
2020-12-24 02:00,0.453
2020-12-24 02:15,0.454
2020-12-24 02:30,0.454
2020-12-24 02:45,0.454
2020-12-24 03:00,0.455
2020-12-24 03:15,0.458
2020-12-24 03:30,0.459
2020-12-24 03:45,0.455
2020-12-24 04:00,0.457
2020-12-24 04:15,0.455
2020-12-24 04:30,0.456
2020-12-24 04:45,0.461
2020-12-24 05:00,0.455
2020-12-24 05:15,0.454
2020-12-24 05:30,0.456
2020-12-24 05:45,0.457
2020-12-24 06:00,0.459
2020-12-24 06:15,0.460
2020-12-24 06:30,0.457
2020-12-24 06:45,0.454
2020-12-24 07:00,0.457
2020-12-24 07:15,0.453
2020-12-24 07:30,0.451
2020-12-24 07:45,0.453
2020-12-24 08:00,0.453
2020-12-24 08:15,0.455
2020-12-24 08:30,0.454
2020-12-24 08:45,0.454
2020-12-24 09:00,0.455
2020-12-24 09:15,0.453
2020-12-24 09:30,0.450
2020-12-24 09:45,0.457
2020-12-24 10:00,0.453
2020-12-24 10:15,0.452
2020-12-24 10:30,0.452
2020-12-24 10:45,0.452
2020-12-24 11:00,0.450
2020-12-24 11:15,0.453
2020-12-24 11:30,0.454
2020-12-24 11:45,0.453
2020-12-24 12:00,0.452
2020-12-24 12:15,0.452
2020-12-24 12:30,0.450
2020-12-24 12:45,0.451
2020-12-24 13:00,0.452
2020-12-24 13:15,0.450
2020-12-24 13:30,0.447
2020-12-24 13:45,0.452
2020-12-24 14:00,0.456
2020-12-24 14:15,0.452
2020-12-24 14:30,0.449
2020-12-24 14:45,0.451
2020-12-24 15:00,0.449
2020-12-24 15:15,0.448
2020-12-24 15:30,0.447
2020-12-24 15:45,0.451
2020-12-24 16:00,0.447
2020-12-24 16:15,0.448
2020-12-24 16:30,0.450
2020-12-24 16:45,0.450
2020-12-24 17:00,0.448
2020-12-24 17:15,0.448
2020-12-24 17:30,0.452
2020-12-24 17:45,0.446
2020-12-24 18:00,0.447
2020-12-24 18:15,0.452
2020-12-24 18:30,0.446
2020-12-24 18:45,0.448
2020-12-24 19:00,0.448
2020-12-24 19:15,0.447
2020-12-24 19:30,0.448
2020-12-24 19:45,0.448
2020-12-24 20:00,0.447
2020-12-24 20:15,0.447
2020-12-24 20:30,0.446
2020-12-24 20:45,0.446
2020-12-24 21:00,0.446
2020-12-24 21:15,0.440
2020-12-24 21:30,0.442
2020-12-24 21:45,0.443
2020-12-24 22:00,0.445
2020-12-24 22:15,0.444
2020-12-24 22:30,0.441
2020-12-24 22:45,0.443
2020-12-24 23:00,0.440
2020-12-24 23:15,0.441
2020-12-24 23:30,0.438
2020-12-24 23:45,0.439
2020-12-25 00:00,0.441
2020-12-25 00:15,0.436
2020-12-25 00:30,0.439
2020-12-25 00:45,0.439
2020-12-25 01:00,0.443
2020-12-25 01:15,0.439
2020-12-25 01:30,0.437
2020-12-25 01:45,0.438
2020-12-25 02:00,0.436
2020-12-25 02:15,0.438
2020-12-25 02:30,0.434
2020-12-25 02:45,0.436
2020-12-25 03:00,0.433
2020-12-25 03:15,0.436
2020-12-25 03:30,0.434
2020-12-25 03:45,0.433
2020-12-25 04:00,0.432
2020-12-25 04:15,0.433
2020-12-25 04:30,0.432
2020-12-25 04:45,0.429
2020-12-25 05:00,0.430
2020-12-25 05:15,0.431
2020-12-25 05:30,0.430
2020-12-25 05:45,0.430
2020-12-25 06:00,0.433
2020-12-25 06:15,0.431
2020-12-25 06:30,0.430
2020-12-25 06:45,0.428
2020-12-25 07:00,0.427
2020-12-25 07:15,0.428
2020-12-25 07:30,0.427
2020-12-25 07:45,0.425
2020-12-25 08:00,0.427
2020-12-25 08:15,0.429
2020-12-25 08:30,0.425
2020-12-25 08:45,0.426
2020-12-25 09:00,0.424
2020-12-25 09:15,0.425
2020-12-25 09:30,0.425
2020-12-25 09:45,0.427
2020-12-25 10:00,0.424
2020-12-25 10:15,0.420
2020-12-25 10:30,0.424
2020-12-25 10:45,0.421
2020-12-25 11:00,0.423
2020-12-25 11:15,0.421
2020-12-25 11:30,0.423
2020-12-25 11:45,0.423
2020-12-25 12:00,0.423
2020-12-25 12:15,0.418
2020-12-25 12:30,0.424
2020-12-25 12:45,0.423
2020-12-25 13:00,0.423
2020-12-25 13:15,0.419
2020-12-25 13:30,0.418
2020-12-25 13:45,0.415
2020-12-25 14:00,0.421
2020-12-25 14:15,0.423
2020-12-25 14:30,0.421
2020-12-25 14:45,0.416
2020-12-25 15:00,0.419
2020-12-25 15:15,0.420
2020-12-25 15:30,0.422
2020-12-25 15:45,0.421
2020-12-25 16:00,0.414
2020-12-25 16:15,0.418
2020-12-25 16:30,0.419
2020-12-25 16:45,0.416
2020-12-25 17:00,0.416
2020-12-25 17:15,0.418
2020-12-25 17:30,0.421
2020-12-25 17:45,0.418
2020-12-25 18:00,0.416
2020-12-25 18:15,0.417
2020-12-25 18:30,0.415
2020-12-25 18:45,0.416
2020-12-25 19:00,0.416
2020-12-25 19:15,0.419
2020-12-25 19:30,0.417
2020-12-25 19:45,0.418
2020-12-25 20:00,0.416
2020-12-25 20:15,0.417
2020-12-25 20:30,0.417
2020-12-25 20:45,0.420
2020-12-25 21:00,0.419
2020-12-25 21:15,0.417
2020-12-25 21:30,0.422
2020-12-25 21:45,0.418
2020-12-25 22:00,0.418
2020-12-25 22:15,0.419
2020-12-25 22:30,0.421
2020-12-25 22:45,0.418
2020-12-25 23:00,0.419
2020-12-25 23:15,0.419
2020-12-25 23:30,0.425
2020-12-25 23:45,0.418
2020-12-26 00:00,0.421
2020-12-26 00:15,0.421
2020-12-26 00:30,0.422
2020-12-26 00:45,0.422
2020-12-26 01:00,0.427
2020-12-26 01:15,0.422
2020-12-26 01:30,0.425
2020-12-26 01:45,0.427
2020-12-26 02:00,0.425
2020-12-26 02:15,0.425
2020-12-26 02:30,0.427
2020-12-26 02:45,0.428
2020-12-26 03:00,0.432
2020-12-26 03:15,0.432
2020-12-26 03:30,0.432
2020-12-26 03:45,0.432
2020-12-26 04:00,0.434
2020-12-26 04:15,0.437
2020-12-26 04:30,0.437
2020-12-26 04:45,0.439
2020-12-26 05:00,0.441
2020-12-26 05:15,0.441
2020-12-26 05:30,0.445
2020-12-26 05:45,0.448
2020-12-26 06:00,0.448
2020-12-26 06:15,0.451
2020-12-26 06:30,0.452
2020-12-26 06:45,0.453
2020-12-26 07:00,0.453
2020-12-26 07:15,0.455
2020-12-26 07:30,0.452
2020-12-26 07:45,0.450
2020-12-26 08:00,0.454
2020-12-26 08:15,0.452
2020-12-26 08:30,0.452
2020-12-26 08:45,0.452
2020-12-26 09:00,0.452
2020-12-26 09:15,0.451
2020-12-26 09:30,0.451
2020-12-26 09:45,0.451
2020-12-26 10:00,0.452
2020-12-26 10:15,0.449
2020-12-26 10:30,0.448
2020-12-26 10:45,0.450
2020-12-26 11:00,0.449
2020-12-26 11:15,0.449
2020-12-26 11:30,0.451
2020-12-26 11:45,0.449
2020-12-26 12:00,0.448
2020-12-26 12:15,0.450
2020-12-26 12:30,0.447
2020-12-26 12:45,0.446
2020-12-26 13:00,0.446
2020-12-26 13:15,0.445
2020-12-26 13:30,0.446
2020-12-26 13:45,0.446
2020-12-26 14:00,0.445
2020-12-26 14:15,0.446
2020-12-26 14:30,0.447
2020-12-26 14:45,0.448
2020-12-26 15:00,0.447
2020-12-26 15:15,0.449
2020-12-26 15:30,0.451
2020-12-26 15:45,0.449
2020-12-26 16:00,0.453
2020-12-26 16:15,0.456
2020-12-26 16:30,0.459
2020-12-26 16:45,0.465
2020-12-26 17:00,0.473
2020-12-26 17:15,0.482
2020-12-26 17:30,0.492
2020-12-26 17:45,0.510
2020-12-26 18:00,0.525
2020-12-26 18:15,0.549
2020-12-26 18:30,0.582
2020-12-26 18:45,0.623
2020-12-26 19:00,0.694
2020-12-26 19:15,0.826
2020-12-26 19:30,1.038
2020-12-26 19:45,1.235
2020-12-26 20:00,1.388
2020-12-26 20:15,1.509
2020-12-26 20:30,1.614
2020-12-26 20:45,1.704
2020-12-26 21:00,1.790
2020-12-26 21:15,1.873
2020-12-26 21:30,1.947
2020-12-26 21:45,2.015
2020-12-26 22:00,2.077
2020-12-26 22:15,2.125
2020-12-26 22:30,2.169
2020-12-26 22:45,2.210
2020-12-26 23:00,2.243
2020-12-26 23:15,2.271
2020-12-26 23:30,2.291
2020-12-26 23:45,2.311
2020-12-27 00:00,2.317
2020-12-27 00:15,2.320
2020-12-27 00:30,2.319
2020-12-27 00:45,2.312
2020-12-27 01:00,2.286
2020-12-27 01:15,2.256
2020-12-27 01:30,2.207
2020-12-27 01:45,2.166
2020-12-27 02:00,2.122
2020-12-27 02:15,2.054
2020-12-27 02:30,1.987
2020-12-27 02:45,1.920
2020-12-27 03:00,1.851
2020-12-27 03:15,1.790
2020-12-27 03:30,1.730
2020-12-27 03:45,1.665
2020-12-27 04:00,1.606
2020-12-27 04:15,1.545
2020-12-27 04:30,1.493
2020-12-27 04:45,1.446
2020-12-27 05:00,1.401
2020-12-27 05:15,1.361
2020-12-27 05:30,1.330
2020-12-27 05:45,1.293
2020-12-27 06:00,1.268
2020-12-27 06:15,1.244
2020-12-27 06:30,1.221
2020-12-27 06:45,1.196
2020-12-27 07:00,1.182
2020-12-27 07:15,1.164
2020-12-27 07:30,1.148
2020-12-27 07:45,1.137
2020-12-27 08:00,1.124
2020-12-27 08:15,1.113
2020-12-27 08:30,1.102
2020-12-27 08:45,1.094
2020-12-27 09:00,1.088
2020-12-27 09:15,1.081
2020-12-27 09:30,1.070
2020-12-27 09:45,1.065
2020-12-27 10:00,1.055
2020-12-27 10:15,1.051
2020-12-27 10:30,1.051
2020-12-27 10:45,1.047
2020-12-27 11:00,1.048
2020-12-27 11:15,1.046
2020-12-27 11:30,1.049
2020-12-27 11:45,1.054
2020-12-27 12:00,1.052
2020-12-27 12:15,1.053
2020-12-27 12:30,1.055
2020-12-27 12:45,1.055
2020-12-27 13:00,1.055
2020-12-27 13:15,1.045
2020-12-27 13:30,1.045
2020-12-27 13:45,1.044
2020-12-27 14:00,1.038
2020-12-27 14:15,1.030
2020-12-27 14:30,1.024
2020-12-27 14:45,1.015
2020-12-27 15:00,1.011
2020-12-27 15:15,1.000
2020-12-27 15:30,0.998
2020-12-27 15:45,0.984
2020-12-27 16:00,0.981
2020-12-27 16:15,0.969
2020-12-27 16:30,0.963
2020-12-27 16:45,0.957
2020-12-27 17:00,0.949
2020-12-27 17:15,0.937
2020-12-27 17:30,0.927
2020-12-27 17:45,0.916
2020-12-27 18:00,0.907
2020-12-27 18:15,0.900
2020-12-27 18:30,0.893
2020-12-27 18:45,0.883
2020-12-27 19:00,0.875
2020-12-27 19:15,0.867
2020-12-27 19:30,0.861
2020-12-27 19:45,0.861
2020-12-27 20:00,0.853
2020-12-27 20:15,0.850
2020-12-27 20:30,0.847
2020-12-27 20:45,0.849
2020-12-27 21:00,0.852
2020-12-27 21:15,0.854
2020-12-27 21:30,0.860
2020-12-27 21:45,0.870
2020-12-27 22:00,0.885
2020-12-27 22:15,0.904
2020-12-27 22:30,0.921
2020-12-27 22:45,0.953
2020-12-27 23:00,0.986
2020-12-27 23:15,1.006
2020-12-27 23:30,1.039
2020-12-27 23:45,1.066
2020-12-28 00:00,1.097
2020-12-28 00:15,1.124
2020-12-28 00:30,1.157
2020-12-28 00:45,1.185
2020-12-28 01:00,1.199
2020-12-28 01:15,1.221
2020-12-28 01:30,1.226
2020-12-28 01:45,1.227
2020-12-28 02:00,1.226
2020-12-28 02:15,1.217
2020-12-28 02:30,1.213
2020-12-28 02:45,1.210
2020-12-28 03:00,1.211
2020-12-28 03:15,1.208
2020-12-28 03:30,1.208
2020-12-28 03:45,1.211
2020-12-28 04:00,1.214
2020-12-28 04:15,1.222
2020-12-28 04:30,1.233
2020-12-28 04:45,1.254
2020-12-28 05:00,1.262
2020-12-28 05:15,1.281
2020-12-28 05:30,1.274
2020-12-28 05:45,1.270
2020-12-28 06:00,1.261
2020-12-28 06:15,1.236
2020-12-28 06:30,1.218
2020-12-28 06:45,1.187
2020-12-28 07:00,1.163
2020-12-28 07:15,1.131
2020-12-28 07:30,1.106
2020-12-28 07:45,1.083
2020-12-28 08:00,1.058
2020-12-28 08:15,1.038
2020-12-28 08:30,1.021
2020-12-28 08:45,1.002
2020-12-28 09:00,0.993
2020-12-28 09:15,0.983
2020-12-28 09:30,0.978
2020-12-28 09:45,0.981
2020-12-28 10:00,1.002
2020-12-28 10:15,1.029
2020-12-28 10:30,1.075
2020-12-28 10:45,1.149
2020-12-28 11:00,1.236
2020-12-28 11:15,1.329
2020-12-28 11:30,1.427
2020-12-28 11:45,1.521
2020-12-28 12:00,1.618
2020-12-28 12:15,1.713
2020-12-28 12:30,1.799
2020-12-28 12:45,1.874
2020-12-28 13:00,1.940
2020-12-28 13:15,1.985
2020-12-28 13:30,2.016
2020-12-28 13:45,2.024
2020-12-28 14:00,2.026
2020-12-28 14:15,2.014
2020-12-28 14:30,1.995
2020-12-28 14:45,1.971
2020-12-28 15:00,1.939
2020-12-28 15:15,1.915
2020-12-28 15:30,1.879
2020-12-28 15:45,1.853
2020-12-28 16:00,1.816
2020-12-28 16:15,1.788
2020-12-28 16:30,1.755
2020-12-28 16:45,1.730
2020-12-28 17:00,1.705
2020-12-28 17:15,1.686
2020-12-28 17:30,1.657
2020-12-28 17:45,1.624
2020-12-28 18:00,1.588
2020-12-28 18:15,1.552
2020-12-28 18:30,1.520
2020-12-28 18:45,1.495
2020-12-28 19:00,1.463
2020-12-28 19:15,1.437
2020-12-28 19:30,1.417
2020-12-28 19:45,1.399
2020-12-28 20:00,1.382
2020-12-28 20:15,1.365
2020-12-28 20:30,1.347
2020-12-28 20:45,1.330
2020-12-28 21:00,1.309
2020-12-28 21:15,1.290
2020-12-28 21:30,1.273
2020-12-28 21:45,1.251
2020-12-28 22:00,1.237
2020-12-28 22:15,1.220
2020-12-28 22:30,1.201
2020-12-28 22:45,1.187
2020-12-28 23:00,1.175
2020-12-28 23:15,1.170
2020-12-28 23:30,1.162
2020-12-28 23:45,1.157
2020-12-29 00:00,1.150
2020-12-29 00:15,1.145
2020-12-29 00:30,1.146
2020-12-29 00:45,1.151
2020-12-29 01:00,1.153
2020-12-29 01:15,1.159
2020-12-29 01:30,1.167
2020-12-29 01:45,1.170
2020-12-29 02:00,1.171
2020-12-29 02:15,1.174
2020-12-29 02:30,1.176
2020-12-29 02:45,1.172
2020-12-29 03:00,1.163
2020-12-29 03:15,1.163
2020-12-29 03:30,1.152
2020-12-29 03:45,1.147
2020-12-29 04:00,1.135
2020-12-29 04:15,1.131
2020-12-29 04:30,1.120
2020-12-29 04:45,1.119
2020-12-29 05:00,1.115
2020-12-29 05:15,1.117
2020-12-29 05:30,1.113
2020-12-29 05:45,1.120
2020-12-29 06:00,1.127
2020-12-29 06:15,1.136
2020-12-29 06:30,1.145
2020-12-29 06:45,1.155
2020-12-29 07:00,1.162
2020-12-29 07:15,1.172
2020-12-29 07:30,1.171
2020-12-29 07:45,1.174
2020-12-29 08:00,1.170
2020-12-29 08:15,1.162
2020-12-29 08:30,1.151
2020-12-29 08:45,1.136
2020-12-29 09:00,1.128
2020-12-29 09:15,1.110
2020-12-29 09:30,1.093
2020-12-29 09:45,1.082
2020-12-29 10:00,1.067
2020-12-29 10:15,1.050
2020-12-29 10:30,1.036
2020-12-29 10:45,1.027
2020-12-29 11:00,1.012
2020-12-29 11:15,1.006
2020-12-29 11:30,1.001
2020-12-29 11:45,0.999
2020-12-29 12:00,0.996
2020-12-29 12:15,1.003
2020-12-29 12:30,1.012
2020-12-29 12:45,1.035
2020-12-29 13:00,1.039
2020-12-29 13:15,1.058
2020-12-29 13:30,1.076
2020-12-29 13:45,1.092
2020-12-29 14:00,1.109
2020-12-29 14:15,1.125
2020-12-29 14:30,1.141
2020-12-29 14:45,1.139
2020-12-29 15:00,1.137
2020-12-29 15:15,1.137
2020-12-29 15:30,1.128
2020-12-29 15:45,1.116
2020-12-29 16:00,1.108
2020-12-29 16:15,1.095
2020-12-29 16:30,1.088
2020-12-29 16:45,1.081
2020-12-29 17:00,1.072
2020-12-29 17:15,1.064
2020-12-29 17:30,1.049
2020-12-29 17:45,1.038
2020-12-29 18:00,1.032
2020-12-29 18:15,1.016
2020-12-29 18:30,1.004
2020-12-29 18:45,0.992
2020-12-29 19:00,0.982
2020-12-29 19:15,0.970
2020-12-29 19:30,0.955
2020-12-29 19:45,0.944
2020-12-29 20:00,0.933
2020-12-29 20:15,0.923
2020-12-29 20:30,0.913
2020-12-29 20:45,0.906
2020-12-29 21:00,0.897
2020-12-29 21:15,0.882
2020-12-29 21:30,0.877
2020-12-29 21:45,0.865
2020-12-29 22:00,0.855
2020-12-29 22:15,0.845
2020-12-29 22:30,0.838
2020-12-29 22:45,0.831
2020-12-29 23:00,0.827
2020-12-29 23:15,0.818
2020-12-29 23:30,0.814
2020-12-29 23:45,0.807
2020-12-30 00:00,0.799
2020-12-30 00:15,0.793
2020-12-30 00:30,0.788
2020-12-30 00:45,0.781
2020-12-30 01:00,0.774
2020-12-30 01:15,0.771
2020-12-30 01:30,0.763
2020-12-30 01:45,0.760
2020-12-30 02:00,0.762
2020-12-30 02:15,0.752
2020-12-30 02:30,0.751
2020-12-30 02:45,0.753
2020-12-30 03:00,0.748
2020-12-30 03:15,0.743
2020-12-30 03:30,0.736
2020-12-30 03:45,0.729
2020-12-30 04:00,0.732
2020-12-30 04:15,0.730
2020-12-30 04:30,0.725
2020-12-30 04:45,0.723
2020-12-30 05:00,0.723
2020-12-30 05:15,0.717
2020-12-30 05:30,0.707
2020-12-30 05:45,0.712
2020-12-30 06:00,0.704
2020-12-30 06:15,0.696
2020-12-30 06:30,0.697
2020-12-30 06:45,0.691
2020-12-30 07:00,0.685
2020-12-30 07:15,0.687
2020-12-30 07:30,0.682
2020-12-30 07:45,0.679
2020-12-30 08:00,0.679
2020-12-30 08:15,0.675
2020-12-30 08:30,0.672
2020-12-30 08:45,0.666
2020-12-30 09:00,0.665
2020-12-30 09:15,0.666
2020-12-30 09:30,0.661
2020-12-30 09:45,0.660
2020-12-30 10:00,0.655
2020-12-30 10:15,0.656
2020-12-30 10:30,0.653
2020-12-30 10:45,0.650
2020-12-30 11:00,0.645
2020-12-30 11:15,0.645
2020-12-30 11:30,0.640
2020-12-30 11:45,0.638
2020-12-30 12:00,0.638
2020-12-30 12:15,0.635
2020-12-30 12:30,0.631
2020-12-30 12:45,0.628
2020-12-30 13:00,0.632
2020-12-30 13:15,0.632
2020-12-30 13:30,0.629
2020-12-30 13:45,0.626
2020-12-30 14:00,0.620
2020-12-30 14:15,0.619
2020-12-30 14:30,0.617
2020-12-30 14:45,0.613
2020-12-30 15:00,0.614
2020-12-30 15:15,0.616
2020-12-30 15:30,0.612
2020-12-30 15:45,0.613
2020-12-30 16:00,0.611
2020-12-30 16:15,0.608
2020-12-30 16:30,0.606
2020-12-30 16:45,0.603
2020-12-30 17:00,0.604
2020-12-30 17:15,0.603
2020-12-30 17:30,0.599
2020-12-30 17:45,0.600
2020-12-30 18:00,0.596
2020-12-30 18:15,0.596
2020-12-30 18:30,0.596
2020-12-30 18:45,0.594
2020-12-30 19:00,0.596
2020-12-30 19:15,0.593
2020-12-30 19:30,0.595
2020-12-30 19:45,0.597
2020-12-30 20:00,0.595
2020-12-30 20:15,0.596
2020-12-30 20:30,0.595
2020-12-30 20:45,0.591
2020-12-30 21:00,0.595
2020-12-30 21:15,0.595
2020-12-30 21:30,0.595
2020-12-30 21:45,0.594
2020-12-30 22:00,0.596
2020-12-30 22:15,0.594
2020-12-30 22:30,0.594
2020-12-30 22:45,0.593
2020-12-30 23:00,0.597
2020-12-30 23:15,0.592
2020-12-30 23:30,0.593
2020-12-30 23:45,0.596
2020-12-31 00:00,0.593
2020-12-31 00:15,0.591
2020-12-31 00:30,0.590
2020-12-31 00:45,0.589
2020-12-31 01:00,0.586
2020-12-31 01:15,0.583
2020-12-31 01:30,0.582
2020-12-31 01:45,0.581
2020-12-31 02:00,0.584
2020-12-31 02:15,0.579
2020-12-31 02:30,0.583
2020-12-31 02:45,0.580
2020-12-31 03:00,0.583
2020-12-31 03:15,0.577
2020-12-31 03:30,0.575
2020-12-31 03:45,0.574
2020-12-31 04:00,0.574
2020-12-31 04:15,0.569
2020-12-31 04:30,0.568
2020-12-31 04:45,0.567
2020-12-31 05:00,0.566
2020-12-31 05:15,0.567
2020-12-31 05:30,0.562
2020-12-31 05:45,0.565
2020-12-31 06:00,0.563
2020-12-31 06:15,0.562
2020-12-31 06:30,0.561
2020-12-31 06:45,0.561
2020-12-31 07:00,0.560
2020-12-31 07:15,0.557
2020-12-31 07:30,0.555
2020-12-31 07:45,0.554
2020-12-31 08:00,0.559
2020-12-31 08:15,0.551
2020-12-31 08:30,0.561
2020-12-31 08:45,0.553
2020-12-31 09:00,0.553
2020-12-31 09:15,0.551
2020-12-31 09:30,0.552
2020-12-31 09:45,0.550
2020-12-31 10:00,0.553
2020-12-31 10:15,0.553
2020-12-31 10:30,0.553
2020-12-31 10:45,0.553
2020-12-31 11:00,0.552
2020-12-31 11:15,0.557
2020-12-31 11:30,0.556
2020-12-31 11:45,0.555
2020-12-31 12:00,0.560
2020-12-31 12:15,0.565
2020-12-31 12:30,0.561
2020-12-31 12:45,0.567
2020-12-31 13:00,0.571
2020-12-31 13:15,0.577
2020-12-31 13:30,0.583
2020-12-31 13:45,0.587
2020-12-31 14:00,0.593
2020-12-31 14:15,0.596
2020-12-31 14:30,0.597
2020-12-31 14:45,0.600
2020-12-31 15:00,0.606
2020-12-31 15:15,0.608
2020-12-31 15:30,0.613
2020-12-31 15:45,0.615
2020-12-31 16:00,0.621
2020-12-31 16:15,0.624
2020-12-31 16:30,0.626
2020-12-31 16:45,0.630
2020-12-31 17:00,0.634
2020-12-31 17:15,0.636
2020-12-31 17:30,0.641
2020-12-31 17:45,0.646
2020-12-31 18:00,0.653
2020-12-31 18:15,0.660
2020-12-31 18:30,0.665
2020-12-31 18:45,0.684
2020-12-31 19:00,0.687
2020-12-31 19:15,0.705
2020-12-31 19:30,0.712
2020-12-31 19:45,0.729
2020-12-31 20:00,0.744
2020-12-31 20:15,0.751
2020-12-31 20:30,0.758
2020-12-31 20:45,0.759
2020-12-31 21:00,0.759
2020-12-31 21:15,0.763
2020-12-31 21:30,0.760
2020-12-31 21:45,0.760
2020-12-31 22:00,0.754
2020-12-31 22:15,0.756
2020-12-31 22:30,0.748
2020-12-31 22:45,0.739
2020-12-31 23:00,0.738
2020-12-31 23:15,0.729
2020-12-31 23:30,0.724
2020-12-31 23:45,0.724
2021-01-01 00:00,0.712
2021-01-01 00:15,0.711
2021-01-01 00:30,0.708
2021-01-01 00:45,0.701
2021-01-01 01:00,0.694
2021-01-01 01:15,0.689
2021-01-01 01:30,0.685
2021-01-01 01:45,0.684
2021-01-01 02:00,0.676
2021-01-01 02:15,0.672
2021-01-01 02:30,0.668
2021-01-01 02:45,0.669
2021-01-01 03:00,0.667
2021-01-01 03:15,0.662
2021-01-01 03:30,0.658
2021-01-01 03:45,0.658
2021-01-01 04:00,0.653
2021-01-01 04:15,0.653
2021-01-01 04:30,0.644
2021-01-01 04:45,0.642
2021-01-01 05:00,0.641
2021-01-01 05:15,0.641
2021-01-01 05:30,0.639
2021-01-01 05:45,0.637
2021-01-01 06:00,0.640
2021-01-01 06:15,0.638
2021-01-01 06:30,0.634
2021-01-01 06:45,0.631
2021-01-01 07:00,0.629
2021-01-01 07:15,0.625
2021-01-01 07:30,0.625
2021-01-01 07:45,0.623
2021-01-01 08:00,0.625
2021-01-01 08:15,0.621
2021-01-01 08:30,0.620
2021-01-01 08:45,0.620
2021-01-01 09:00,0.621
2021-01-01 09:15,0.613
2021-01-01 09:30,0.615
2021-01-01 09:45,0.607
2021-01-01 10:00,0.604
2021-01-01 10:15,0.603
2021-01-01 10:30,0.599
2021-01-01 10:45,0.601
2021-01-01 11:00,0.596
2021-01-01 11:15,0.600
2021-01-01 11:30,0.593
2021-01-01 11:45,0.593
2021-01-01 12:00,0.594
2021-01-01 12:15,0.588
2021-01-01 12:30,0.591
2021-01-01 12:45,0.581
2021-01-01 13:00,0.581
2021-01-01 13:15,0.584
2021-01-01 13:30,0.577
2021-01-01 13:45,0.579
2021-01-01 14:00,0.576
2021-01-01 14:15,0.581
2021-01-01 14:30,0.575
2021-01-01 14:45,0.573
2021-01-01 15:00,0.569
2021-01-01 15:15,0.567
2021-01-01 15:30,0.568
2021-01-01 15:45,0.565
2021-01-01 16:00,0.563
2021-01-01 16:15,0.562
2021-01-01 16:30,0.559
2021-01-01 16:45,0.557
2021-01-01 17:00,0.561
2021-01-01 17:15,0.559
2021-01-01 17:30,0.555
2021-01-01 17:45,0.555
2021-01-01 18:00,0.554
2021-01-01 18:15,0.553
2021-01-01 18:30,0.552
2021-01-01 18:45,0.550
2021-01-01 19:00,0.549
2021-01-01 19:15,0.550
2021-01-01 19:30,0.549
2021-01-01 19:45,0.546
2021-01-01 20:00,0.549
2021-01-01 20:15,0.543
2021-01-01 20:30,0.542
2021-01-01 20:45,0.539
2021-01-01 21:00,0.541
2021-01-01 21:15,0.542
2021-01-01 21:30,0.539
2021-01-01 21:45,0.538
2021-01-01 22:00,0.537
2021-01-01 22:15,0.536
2021-01-01 22:30,0.536
2021-01-01 22:45,0.534
2021-01-01 23:00,0.532
2021-01-01 23:15,0.531
2021-01-01 23:30,0.530
2021-01-01 23:45,0.529
2021-01-02 00:00,0.528
2021-01-02 00:15,0.526
2021-01-02 00:30,0.526
2021-01-02 00:45,0.528
2021-01-02 01:00,0.527
2021-01-02 01:15,0.525
2021-01-02 01:30,0.523
2021-01-02 01:45,0.521
2021-01-02 02:00,0.521
2021-01-02 02:15,0.520
2021-01-02 02:30,0.521
2021-01-02 02:45,0.520
2021-01-02 03:00,0.523
2021-01-02 03:15,0.521
2021-01-02 03:30,0.520
2021-01-02 03:45,0.520
2021-01-02 04:00,0.517
2021-01-02 04:15,0.520
2021-01-02 04:30,0.517
2021-01-02 04:45,0.519
2021-01-02 05:00,0.516
2021-01-02 05:15,0.518
2021-01-02 05:30,0.521
2021-01-02 05:45,0.515
2021-01-02 06:00,0.517
2021-01-02 06:15,0.518
2021-01-02 06:30,0.517
2021-01-02 06:45,0.520
2021-01-02 07:00,0.521
2021-01-02 07:15,0.517
2021-01-02 07:30,0.521
2021-01-02 07:45,0.520
2021-01-02 08:00,0.523
2021-01-02 08:15,0.525
2021-01-02 08:30,0.522
2021-01-02 08:45,0.532
2021-01-02 09:00,0.539
2021-01-02 09:15,0.536
2021-01-02 09:30,0.535
2021-01-02 09:45,0.542
2021-01-02 10:00,0.546
2021-01-02 10:15,0.555
2021-01-02 10:30,0.562
2021-01-02 10:45,0.567
2021-01-02 11:00,0.574
2021-01-02 11:15,0.584
2021-01-02 11:30,0.590
2021-01-02 11:45,0.598
2021-01-02 12:00,0.599
2021-01-02 12:15,0.601
2021-01-02 12:30,0.608
2021-01-02 12:45,0.611
2021-01-02 13:00,0.620
2021-01-02 13:15,0.618
2021-01-02 13:30,0.623
2021-01-02 13:45,0.619
2021-01-02 14:00,0.620
2021-01-02 14:15,0.625
2021-01-02 14:30,0.624
2021-01-02 14:45,0.621
2021-01-02 15:00,0.619
2021-01-02 15:15,0.617
2021-01-02 15:30,0.619
2021-01-02 15:45,0.612
2021-01-02 16:00,0.615
2021-01-02 16:15,0.607
2021-01-02 16:30,0.608
2021-01-02 16:45,0.604
2021-01-02 17:00,0.605
2021-01-02 17:15,0.606
2021-01-02 17:30,0.605
2021-01-02 17:45,0.602
2021-01-02 18:00,0.601
2021-01-02 18:15,0.599
2021-01-02 18:30,0.598
2021-01-02 18:45,0.599
2021-01-02 19:00,0.596
2021-01-02 19:15,0.596
2021-01-02 19:30,0.596
2021-01-02 19:45,0.593
2021-01-02 20:00,0.591
2021-01-02 20:15,0.590
2021-01-02 20:30,0.591
2021-01-02 20:45,0.585
2021-01-02 21:00,0.583
2021-01-02 21:15,0.582
2021-01-02 21:30,0.578
2021-01-02 21:45,0.578
2021-01-02 22:00,0.577
2021-01-02 22:15,0.575
2021-01-02 22:30,0.575
2021-01-02 22:45,0.573
2021-01-02 23:00,0.569
2021-01-02 23:15,0.566
2021-01-02 23:30,0.564
2021-01-02 23:45,0.561
2021-01-03 00:00,0.560
2021-01-03 00:15,0.558
2021-01-03 00:30,0.553
2021-01-03 00:45,0.550
2021-01-03 01:00,0.551
2021-01-03 01:15,0.553
2021-01-03 01:30,0.550
2021-01-03 01:45,0.544
2021-01-03 02:00,0.548
2021-01-03 02:15,0.543
2021-01-03 02:30,0.545
2021-01-03 02:45,0.540
2021-01-03 03:00,0.536
2021-01-03 03:15,0.536
2021-01-03 03:30,0.535
2021-01-03 03:45,0.532
2021-01-03 04:00,0.535
2021-01-03 04:15,0.533
2021-01-03 04:30,0.528
2021-01-03 04:45,0.527
2021-01-03 05:00,0.523
2021-01-03 05:15,0.520
2021-01-03 05:30,0.522
2021-01-03 05:45,0.519
2021-01-03 06:00,0.519
2021-01-03 06:15,0.518
2021-01-03 06:30,0.515
2021-01-03 06:45,0.514
2021-01-03 07:00,0.516
2021-01-03 07:15,0.514
2021-01-03 07:30,0.512
2021-01-03 07:45,0.506
2021-01-03 08:00,0.509
2021-01-03 08:15,0.507
2021-01-03 08:30,0.505
2021-01-03 08:45,0.507
2021-01-03 09:00,0.501
2021-01-03 09:15,0.504
2021-01-03 09:30,0.502
2021-01-03 09:45,0.502
2021-01-03 10:00,0.500
2021-01-03 10:15,0.500
2021-01-03 10:30,0.495
2021-01-03 10:45,0.495
2021-01-03 11:00,0.498
2021-01-03 11:15,0.498
2021-01-03 11:30,0.490
2021-01-03 11:45,0.490
2021-01-03 12:00,0.490
2021-01-03 12:15,0.489
2021-01-03 12:30,0.489
2021-01-03 12:45,0.488
2021-01-03 13:00,0.485
2021-01-03 13:15,0.486
2021-01-03 13:30,0.486
2021-01-03 13:45,0.483
2021-01-03 14:00,0.482
2021-01-03 14:15,0.481
2021-01-03 14:30,0.486
2021-01-03 14:45,0.483
2021-01-03 15:00,0.486
2021-01-03 15:15,0.486
2021-01-03 15:30,0.478
2021-01-03 15:45,0.479
2021-01-03 16:00,0.479
2021-01-03 16:15,0.477
2021-01-03 16:30,0.479
2021-01-03 16:45,0.479
2021-01-03 17:00,0.477
2021-01-03 17:15,0.475
2021-01-03 17:30,0.475
2021-01-03 17:45,0.474
2021-01-03 18:00,0.475
2021-01-03 18:15,0.476
2021-01-03 18:30,0.477
2021-01-03 18:45,0.471
2021-01-03 19:00,0.474
2021-01-03 19:15,0.474
2021-01-03 19:30,0.470
2021-01-03 19:45,0.472
2021-01-03 20:00,0.471
2021-01-03 20:15,0.472
2021-01-03 20:30,0.471
2021-01-03 20:45,0.468
2021-01-03 21:00,0.472
2021-01-03 21:15,0.473
2021-01-03 21:30,0.467
2021-01-03 21:45,0.469
2021-01-03 22:00,0.463
2021-01-03 22:15,0.469
2021-01-03 22:30,0.468
2021-01-03 22:45,0.465
2021-01-03 23:00,0.466
2021-01-03 23:15,0.464
2021-01-03 23:30,0.470
2021-01-03 23:45,0.464
2021-01-04 00:00,0.463
2021-01-04 00:15,0.465
2021-01-04 00:30,0.459
2021-01-04 00:45,0.466
2021-01-04 01:00,0.463
2021-01-04 01:15,0.460
2021-01-04 01:30,0.460
2021-01-04 01:45,0.459
2021-01-04 02:00,0.463
2021-01-04 02:15,0.460
2021-01-04 02:30,0.462
2021-01-04 02:45,0.460
2021-01-04 03:00,0.458
2021-01-04 03:15,0.454
2021-01-04 03:30,0.454
2021-01-04 03:45,0.452
2021-01-04 04:00,0.457
2021-01-04 04:15,0.455
2021-01-04 04:30,0.453
2021-01-04 04:45,0.453
2021-01-04 05:00,0.453
2021-01-04 05:15,0.451
2021-01-04 05:30,0.455
2021-01-04 05:45,0.447
2021-01-04 06:00,0.448
2021-01-04 06:15,0.447
2021-01-04 06:30,0.446
2021-01-04 06:45,0.448
2021-01-04 07:00,0.448
2021-01-04 07:15,0.448
2021-01-04 07:30,0.446
2021-01-04 07:45,0.449
2021-01-04 08:00,0.447
2021-01-04 08:15,0.443
2021-01-04 08:30,0.441
2021-01-04 08:45,0.443
2021-01-04 09:00,0.441
2021-01-04 09:15,0.442
2021-01-04 09:30,0.439
2021-01-04 09:45,0.438
2021-01-04 10:00,0.439
2021-01-04 10:15,0.442
2021-01-04 10:30,0.439
2021-01-04 10:45,0.440
2021-01-04 11:00,0.437
2021-01-04 11:15,0.436
2021-01-04 11:30,0.436
2021-01-04 11:45,0.438
2021-01-04 12:00,0.440
2021-01-04 12:15,0.433
2021-01-04 12:30,0.435
2021-01-04 12:45,0.436
2021-01-04 13:00,0.437
2021-01-04 13:15,0.434
2021-01-04 13:30,0.432
2021-01-04 13:45,0.431
2021-01-04 14:00,0.435
2021-01-04 14:15,0.432
2021-01-04 14:30,0.429
2021-01-04 14:45,0.428
2021-01-04 15:00,0.431
2021-01-04 15:15,0.430
2021-01-04 15:30,0.430
2021-01-04 15:45,0.428
2021-01-04 16:00,0.430
2021-01-04 16:15,0.427
2021-01-04 16:30,0.424
2021-01-04 16:45,0.424
2021-01-04 17:00,0.426
2021-01-04 17:15,0.429
2021-01-04 17:30,0.430
2021-01-04 17:45,0.426
2021-01-04 18:00,0.424
2021-01-04 18:15,0.424
2021-01-04 18:30,0.425
2021-01-04 18:45,0.425
2021-01-04 19:00,0.426
2021-01-04 19:15,0.424
2021-01-04 19:30,0.426
2021-01-04 19:45,0.417
2021-01-04 20:00,0.428
2021-01-04 20:15,0.426
2021-01-04 20:30,0.422
2021-01-04 20:45,0.424
2021-01-04 21:00,0.421
2021-01-04 21:15,0.422
2021-01-04 21:30,0.427
2021-01-04 21:45,0.421
2021-01-04 22:00,0.426
2021-01-04 22:15,0.423
2021-01-04 22:30,0.426
2021-01-04 22:45,0.423
2021-01-04 23:00,0.422
2021-01-04 23:15,0.426
2021-01-04 23:30,0.425
2021-01-04 23:45,0.425
2021-01-05 00:00,0.421
2021-01-05 00:15,0.420
2021-01-05 00:30,0.423
2021-01-05 00:45,0.427
2021-01-05 01:00,0.421
2021-01-05 01:15,0.421
2021-01-05 01:30,0.422
2021-01-05 01:45,0.420
2021-01-05 02:00,0.420
2021-01-05 02:15,0.422
2021-01-05 02:30,0.421
2021-01-05 02:45,0.421
2021-01-05 03:00,0.421
2021-01-05 03:15,0.421
2021-01-05 03:30,0.418
2021-01-05 03:45,0.418
2021-01-05 04:00,0.419
2021-01-05 04:15,0.420
2021-01-05 04:30,0.419
2021-01-05 04:45,0.421
2021-01-05 05:00,0.423
2021-01-05 05:15,0.421
2021-01-05 05:30,0.420
2021-01-05 05:45,0.417
2021-01-05 06:00,0.420
2021-01-05 06:15,0.418
2021-01-05 06:30,0.414
2021-01-05 06:45,0.414
2021-01-05 07:00,0.416
2021-01-05 07:15,0.417
2021-01-05 07:30,0.415
2021-01-05 07:45,0.416
2021-01-05 08:00,0.420
2021-01-05 08:15,0.416
2021-01-05 08:30,0.415
2021-01-05 08:45,0.415
2021-01-05 09:00,0.411
2021-01-05 09:15,0.411
2021-01-05 09:30,0.410
2021-01-05 09:45,0.413
2021-01-05 10:00,0.412
2021-01-05 10:15,0.417
2021-01-05 10:30,0.413
2021-01-05 10:45,0.415
2021-01-05 11:00,0.415
2021-01-05 11:15,0.412
2021-01-05 11:30,0.410
2021-01-05 11:45,0.411
2021-01-05 12:00,0.411
2021-01-05 12:15,0.412
2021-01-05 12:30,0.409
2021-01-05 12:45,0.408
2021-01-05 13:00,0.411
2021-01-05 13:15,0.408
2021-01-05 13:30,0.409
2021-01-05 13:45,0.409
2021-01-05 14:00,0.408
2021-01-05 14:15,0.407
2021-01-05 14:30,0.405
2021-01-05 14:45,0.407
2021-01-05 15:00,0.407
2021-01-05 15:15,0.405
2021-01-05 15:30,0.408
2021-01-05 15:45,0.406
2021-01-05 16:00,0.407
2021-01-05 16:15,0.402
2021-01-05 16:30,0.407
2021-01-05 16:45,0.407
2021-01-05 17:00,0.402
2021-01-05 17:15,0.403
2021-01-05 17:30,0.408
2021-01-05 17:45,0.406
2021-01-05 18:00,0.403
2021-01-05 18:15,0.400
2021-01-05 18:30,0.406
2021-01-05 18:45,0.405
2021-01-05 19:00,0.406
2021-01-05 19:15,0.403
2021-01-05 19:30,0.401
2021-01-05 19:45,0.402
2021-01-05 20:00,0.405
2021-01-05 20:15,0.403
2021-01-05 20:30,0.398
2021-01-05 20:45,0.402
2021-01-05 21:00,0.401
2021-01-05 21:15,0.401
2021-01-05 21:30,0.400
2021-01-05 21:45,0.399
2021-01-05 22:00,0.400
2021-01-05 22:15,0.399
2021-01-05 22:30,0.398
2021-01-05 22:45,0.401
2021-01-05 23:00,0.397
2021-01-05 23:15,0.396
2021-01-05 23:30,0.397
2021-01-05 23:45,0.398
2021-01-06 00:00,0.402
2021-01-06 00:15,0.398
2021-01-06 00:30,0.399
2021-01-06 00:45,0.395
2021-01-06 01:00,0.399
2021-01-06 01:15,0.398
2021-01-06 01:30,0.395
2021-01-06 01:45,0.395
2021-01-06 02:00,0.392
2021-01-06 02:15,0.395
2021-01-06 02:30,0.396
2021-01-06 02:45,0.395
2021-01-06 03:00,0.398
2021-01-06 03:15,0.396
2021-01-06 03:30,0.390
2021-01-06 03:45,0.393
2021-01-06 04:00,0.393
2021-01-06 04:15,0.391
2021-01-06 04:30,0.393
2021-01-06 04:45,0.393
2021-01-06 05:00,0.392
2021-01-06 05:15,0.392
2021-01-06 05:30,0.390
2021-01-06 05:45,0.390
2021-01-06 06:00,0.391
2021-01-06 06:15,0.393
2021-01-06 06:30,0.387
2021-01-06 06:45,0.392
2021-01-06 07:00,0.390
2021-01-06 07:15,0.389
2021-01-06 07:30,0.390
2021-01-06 07:45,0.390
2021-01-06 08:00,0.389
2021-01-06 08:15,0.389
2021-01-06 08:30,0.386
2021-01-06 08:45,0.387
2021-01-06 09:00,0.387
2021-01-06 09:15,0.387
2021-01-06 09:30,0.387
2021-01-06 09:45,0.386
2021-01-06 10:00,0.383
2021-01-06 10:15,0.387
2021-01-06 10:30,0.386
2021-01-06 10:45,0.384
2021-01-06 11:00,0.383
2021-01-06 11:15,0.384
2021-01-06 11:30,0.381
2021-01-06 11:45,0.383
2021-01-06 12:00,0.383
2021-01-06 12:15,0.377
2021-01-06 12:30,0.381
2021-01-06 12:45,0.380
2021-01-06 13:00,0.382
2021-01-06 13:15,0.379
2021-01-06 13:30,0.378
2021-01-06 13:45,0.381
2021-01-06 14:00,0.386
2021-01-06 14:15,0.382
2021-01-06 14:30,0.380
2021-01-06 14:45,0.377
2021-01-06 15:00,0.377
2021-01-06 15:15,0.382
2021-01-06 15:30,0.380
2021-01-06 15:45,0.377
2021-01-06 16:00,0.378
2021-01-06 16:15,0.377
2021-01-06 16:30,0.378
2021-01-06 16:45,0.379
2021-01-06 17:00,0.376
2021-01-06 17:15,0.375
2021-01-06 17:30,0.378
2021-01-06 17:45,0.377
2021-01-06 18:00,0.377
2021-01-06 18:15,0.374
2021-01-06 18:30,0.377
2021-01-06 18:45,0.375
2021-01-06 19:00,0.378
2021-01-06 19:15,0.374
2021-01-06 19:30,0.380
2021-01-06 19:45,0.377
2021-01-06 20:00,0.376
2021-01-06 20:15,0.372
2021-01-06 20:30,0.372
2021-01-06 20:45,0.373
2021-01-06 21:00,0.371
2021-01-06 21:15,0.371
2021-01-06 21:30,0.380
2021-01-06 21:45,0.375
2021-01-06 22:00,0.375
2021-01-06 22:15,0.376
2021-01-06 22:30,0.375
2021-01-06 22:45,0.375
2021-01-06 23:00,0.373
2021-01-06 23:15,0.379
2021-01-06 23:30,0.376
2021-01-06 23:45,0.379
2021-01-07 00:00,0.379
2021-01-07 00:15,0.380
2021-01-07 00:30,0.377
2021-01-07 00:45,0.381
2021-01-07 01:00,0.384
2021-01-07 01:15,0.381
2021-01-07 01:30,0.388
2021-01-07 01:45,0.382
2021-01-07 02:00,0.382
2021-01-07 02:15,0.378
2021-01-07 02:30,0.384
2021-01-07 02:45,0.382
2021-01-07 03:00,0.380
2021-01-07 03:15,0.383
2021-01-07 03:30,0.379
2021-01-07 03:45,0.383
2021-01-07 04:00,0.382
2021-01-07 04:15,0.384
2021-01-07 04:30,0.380
2021-01-07 04:45,0.383
2021-01-07 05:00,0.385
2021-01-07 05:15,0.385
2021-01-07 05:30,0.383
2021-01-07 05:45,0.385
2021-01-07 06:00,0.390
2021-01-07 06:15,0.385
2021-01-07 06:30,0.395
2021-01-07 06:45,0.389
2021-01-07 07:00,0.389
2021-01-07 07:15,0.391
2021-01-07 07:30,0.397
2021-01-07 07:45,0.393
2021-01-07 08:00,0.388
2021-01-07 08:15,0.396
2021-01-07 08:30,0.396
2021-01-07 08:45,0.397
2021-01-07 09:00,0.393
2021-01-07 09:15,0.391
2021-01-07 09:30,0.394
2021-01-07 09:45,0.397
2021-01-07 10:00,0.394
2021-01-07 10:15,0.395
2021-01-07 10:30,0.396
2021-01-07 10:45,0.395
2021-01-07 11:00,0.398
2021-01-07 11:15,0.398
2021-01-07 11:30,0.397
2021-01-07 11:45,0.398
2021-01-07 12:00,0.397
2021-01-07 12:15,0.399
2021-01-07 12:30,0.400
2021-01-07 12:45,0.398
2021-01-07 13:00,0.402
2021-01-07 13:15,0.400
2021-01-07 13:30,0.398
2021-01-07 13:45,0.405
2021-01-07 14:00,0.407
2021-01-07 14:15,0.410
2021-01-07 14:30,0.405
2021-01-07 14:45,0.406
2021-01-07 15:00,0.407
2021-01-07 15:15,0.408
2021-01-07 15:30,0.412
2021-01-07 15:45,0.415
2021-01-07 16:00,0.414
2021-01-07 16:15,0.411
2021-01-07 16:30,0.411
2021-01-07 16:45,0.414
2021-01-07 17:00,0.412
2021-01-07 17:15,0.415
2021-01-07 17:30,0.416
2021-01-07 17:45,0.416
2021-01-07 18:00,0.412
2021-01-07 18:15,0.416
2021-01-07 18:30,0.416
2021-01-07 18:45,0.417
2021-01-07 19:00,0.417
2021-01-07 19:15,0.423
2021-01-07 19:30,0.423
2021-01-07 19:45,0.424
2021-01-07 20:00,0.424
2021-01-07 20:15,0.425
2021-01-07 20:30,0.430
2021-01-07 20:45,0.431
2021-01-07 21:00,0.434
2021-01-07 21:15,0.428
2021-01-07 21:30,0.435
2021-01-07 21:45,0.435
2021-01-07 22:00,0.442
2021-01-07 22:15,0.442
2021-01-07 22:30,0.442
2021-01-07 22:45,0.447
2021-01-07 23:00,0.449
2021-01-07 23:15,0.445
2021-01-07 23:30,0.455
2021-01-07 23:45,0.457
2021-01-08 00:00,0.459
2021-01-08 00:15,0.459
2021-01-08 00:30,0.461
2021-01-08 00:45,0.465
2021-01-08 01:00,0.466
2021-01-08 01:15,0.465
2021-01-08 01:30,0.463
2021-01-08 01:45,0.466
2021-01-08 02:00,0.468
2021-01-08 02:15,0.468
2021-01-08 02:30,0.467
2021-01-08 02:45,0.469
2021-01-08 03:00,0.471
2021-01-08 03:15,0.474
2021-01-08 03:30,0.471
2021-01-08 03:45,0.471
2021-01-08 04:00,0.471
2021-01-08 04:15,0.470
2021-01-08 04:30,0.474
2021-01-08 04:45,0.471
2021-01-08 05:00,0.470
2021-01-08 05:15,0.473
2021-01-08 05:30,0.471
2021-01-08 05:45,0.474
2021-01-08 06:00,0.473
2021-01-08 06:15,0.471
2021-01-08 06:30,0.469
2021-01-08 06:45,0.469
2021-01-08 07:00,0.468
2021-01-08 07:15,0.462
2021-01-08 07:30,0.465
2021-01-08 07:45,0.462
2021-01-08 08:00,0.461
2021-01-08 08:15,0.458
2021-01-08 08:30,0.458
2021-01-08 08:45,0.455
2021-01-08 09:00,0.456
2021-01-08 09:15,0.453
2021-01-08 09:30,0.449
2021-01-08 09:45,0.451
2021-01-08 10:00,0.448
2021-01-08 10:15,0.450
2021-01-08 10:30,0.446
2021-01-08 10:45,0.447
2021-01-08 11:00,0.444
2021-01-08 11:15,0.448
2021-01-08 11:30,0.443
2021-01-08 11:45,0.449
2021-01-08 12:00,0.441
2021-01-08 12:15,0.438
2021-01-08 12:30,0.441
2021-01-08 12:45,0.435
2021-01-08 13:00,0.438
2021-01-08 13:15,0.432
2021-01-08 13:30,0.433
2021-01-08 13:45,0.429
2021-01-08 14:00,0.431
2021-01-08 14:15,0.432
2021-01-08 14:30,0.424
2021-01-08 14:45,0.429
2021-01-08 15:00,0.426
2021-01-08 15:15,0.428
2021-01-08 15:30,0.426
2021-01-08 15:45,0.427
2021-01-08 16:00,0.428
2021-01-08 16:15,0.423
2021-01-08 16:30,0.422
2021-01-08 16:45,0.430
2021-01-08 17:00,0.426
2021-01-08 17:15,0.423
2021-01-08 17:30,0.425
2021-01-08 17:45,0.419
2021-01-08 18:00,0.419
2021-01-08 18:15,0.422
2021-01-08 18:30,0.415
2021-01-08 18:45,0.414
2021-01-08 19:00,0.415
2021-01-08 19:15,0.423
2021-01-08 19:30,0.412
2021-01-08 19:45,0.422
2021-01-08 20:00,0.416
2021-01-08 20:15,0.415
2021-01-08 20:30,0.411
2021-01-08 20:45,0.417
2021-01-08 21:00,0.415
2021-01-08 21:15,0.410
2021-01-08 21:30,0.412
2021-01-08 21:45,0.414
2021-01-08 22:00,0.412
2021-01-08 22:15,0.412
2021-01-08 22:30,0.412
2021-01-08 22:45,0.412
2021-01-08 23:00,0.413
2021-01-08 23:15,0.410
2021-01-08 23:30,0.411
2021-01-08 23:45,0.409
2021-01-09 00:00,0.409
2021-01-09 00:15,0.410
2021-01-09 00:30,0.409
2021-01-09 00:45,0.409
2021-01-09 01:00,0.408
2021-01-09 01:15,0.406
2021-01-09 01:30,0.408
2021-01-09 01:45,0.407
2021-01-09 02:00,0.407
2021-01-09 02:15,0.405
2021-01-09 02:30,0.407
2021-01-09 02:45,0.406
2021-01-09 03:00,0.403
2021-01-09 03:15,0.403
2021-01-09 03:30,0.404
2021-01-09 03:45,0.404
2021-01-09 04:00,0.404
2021-01-09 04:15,0.404
2021-01-09 04:30,0.403
2021-01-09 04:45,0.406
2021-01-09 05:00,0.402
2021-01-09 05:15,0.399
2021-01-09 05:30,0.399
2021-01-09 05:45,0.402
2021-01-09 06:00,0.399
2021-01-09 06:15,0.398
2021-01-09 06:30,0.400
2021-01-09 06:45,0.396
2021-01-09 07:00,0.399
2021-01-09 07:15,0.397
2021-01-09 07:30,0.397
2021-01-09 07:45,0.396
2021-01-09 08:00,0.395
2021-01-09 08:15,0.393
2021-01-09 08:30,0.395
2021-01-09 08:45,0.395
2021-01-09 09:00,0.396
2021-01-09 09:15,0.397
2021-01-09 09:30,0.392
2021-01-09 09:45,0.391
2021-01-09 10:00,0.393
2021-01-09 10:15,0.390
2021-01-09 10:30,0.390
2021-01-09 10:45,0.388
2021-01-09 11:00,0.389
2021-01-09 11:15,0.388
2021-01-09 11:30,0.391
2021-01-09 11:45,0.389
2021-01-09 12:00,0.391
2021-01-09 12:15,0.388
2021-01-09 12:30,0.390
2021-01-09 12:45,0.386
2021-01-09 13:00,0.387
2021-01-09 13:15,0.390
2021-01-09 13:30,0.387
2021-01-09 13:45,0.388
2021-01-09 14:00,0.383
2021-01-09 14:15,0.386
2021-01-09 14:30,0.391
2021-01-09 14:45,0.385
2021-01-09 15:00,0.387
2021-01-09 15:15,0.389
2021-01-09 15:30,0.390
2021-01-09 15:45,0.383
2021-01-09 16:00,0.382
2021-01-09 16:15,0.382
2021-01-09 16:30,0.386
2021-01-09 16:45,0.383
2021-01-09 17:00,0.380
2021-01-09 17:15,0.379
2021-01-09 17:30,0.387
2021-01-09 17:45,0.381
2021-01-09 18:00,0.382
2021-01-09 18:15,0.382
2021-01-09 18:30,0.385
2021-01-09 18:45,0.383
2021-01-09 19:00,0.381
2021-01-09 19:15,0.381
2021-01-09 19:30,0.382
2021-01-09 19:45,0.385
2021-01-09 20:00,0.386
2021-01-09 20:15,0.381
2021-01-09 20:30,0.385
2021-01-09 20:45,0.382
2021-01-09 21:00,0.380
2021-01-09 21:15,0.380
2021-01-09 21:30,0.386
2021-01-09 21:45,0.384
2021-01-09 22:00,0.382
2021-01-09 22:15,0.383
2021-01-09 22:30,0.384
2021-01-09 22:45,0.385
2021-01-09 23:00,0.388
2021-01-09 23:15,0.391
2021-01-09 23:30,0.385
2021-01-09 23:45,0.388
2021-01-10 00:00,0.384
2021-01-10 00:15,0.388
2021-01-10 00:30,0.393
2021-01-10 00:45,0.392
2021-01-10 01:00,0.392
2021-01-10 01:15,0.393
2021-01-10 01:30,0.393
2021-01-10 01:45,0.398
2021-01-10 02:00,0.404
2021-01-10 02:15,0.401
2021-01-10 02:30,0.405
2021-01-10 02:45,0.407
2021-01-10 03:00,0.407
2021-01-10 03:15,0.412
2021-01-10 03:30,0.421
2021-01-10 03:45,0.428
2021-01-10 04:00,0.430
2021-01-10 04:15,0.436
2021-01-10 04:30,0.438
2021-01-10 04:45,0.440
2021-01-10 05:00,0.445
2021-01-10 05:15,0.451
2021-01-10 05:30,0.455
2021-01-10 05:45,0.458
2021-01-10 06:00,0.458
2021-01-10 06:15,0.462
2021-01-10 06:30,0.462
2021-01-10 06:45,0.465
2021-01-10 07:00,0.464
2021-01-10 07:15,0.468
2021-01-10 07:30,0.462
2021-01-10 07:45,0.462
2021-01-10 08:00,0.464
2021-01-10 08:15,0.464
2021-01-10 08:30,0.465
2021-01-10 08:45,0.462
2021-01-10 09:00,0.467
2021-01-10 09:15,0.466
2021-01-10 09:30,0.470
2021-01-10 09:45,0.466
2021-01-10 10:00,0.467
2021-01-10 10:15,0.463
2021-01-10 10:30,0.463
2021-01-10 10:45,0.465
2021-01-10 11:00,0.466
2021-01-10 11:15,0.465
2021-01-10 11:30,0.467
2021-01-10 11:45,0.465
2021-01-10 12:00,0.467
2021-01-10 12:15,0.467
2021-01-10 12:30,0.466
2021-01-10 12:45,0.466
2021-01-10 13:00,0.468
2021-01-10 13:15,0.468
2021-01-10 13:30,0.468
2021-01-10 13:45,0.470
2021-01-10 14:00,0.467
2021-01-10 14:15,0.472
2021-01-10 14:30,0.471
2021-01-10 14:45,0.476
2021-01-10 15:00,0.474
2021-01-10 15:15,0.472
2021-01-10 15:30,0.473
2021-01-10 15:45,0.476
2021-01-10 16:00,0.475
2021-01-10 16:15,0.477
2021-01-10 16:30,0.477
2021-01-10 16:45,0.481
2021-01-10 17:00,0.479
2021-01-10 17:15,0.484
2021-01-10 17:30,0.481
2021-01-10 17:45,0.485
2021-01-10 18:00,0.485
2021-01-10 18:15,0.484
2021-01-10 18:30,0.484
2021-01-10 18:45,0.484
2021-01-10 19:00,0.483
2021-01-10 19:15,0.484
2021-01-10 19:30,0.482
2021-01-10 19:45,0.486
2021-01-10 20:00,0.487
2021-01-10 20:15,0.487
2021-01-10 20:30,0.481
2021-01-10 20:45,0.479
2021-01-10 21:00,0.477
2021-01-10 21:15,0.476
2021-01-10 21:30,0.476
2021-01-10 21:45,0.476
2021-01-10 22:00,0.474
2021-01-10 22:15,0.473
2021-01-10 22:30,0.471
2021-01-10 22:45,0.471
2021-01-10 23:00,0.471
2021-01-10 23:15,0.471
2021-01-10 23:30,0.470
2021-01-10 23:45,0.465
2021-01-11 00:00,0.466
2021-01-11 00:15,0.464
2021-01-11 00:30,0.465
2021-01-11 00:45,0.460
2021-01-11 01:00,0.463
2021-01-11 01:15,0.459
2021-01-11 01:30,0.459
2021-01-11 01:45,0.460
2021-01-11 02:00,0.458
2021-01-11 02:15,0.456
2021-01-11 02:30,0.455
2021-01-11 02:45,0.456
2021-01-11 03:00,0.455
2021-01-11 03:15,0.453
2021-01-11 03:30,0.452
2021-01-11 03:45,0.453
2021-01-11 04:00,0.451
2021-01-11 04:15,0.454
2021-01-11 04:30,0.452
2021-01-11 04:45,0.452
2021-01-11 05:00,0.451
2021-01-11 05:15,0.451
2021-01-11 05:30,0.451
2021-01-11 05:45,0.452
2021-01-11 06:00,0.451
2021-01-11 06:15,0.453
2021-01-11 06:30,0.453
2021-01-11 06:45,0.454
2021-01-11 07:00,0.458
2021-01-11 07:15,0.460
2021-01-11 07:30,0.461
2021-01-11 07:45,0.462
2021-01-11 08:00,0.467
2021-01-11 08:15,0.468
2021-01-11 08:30,0.469
2021-01-11 08:45,0.470
2021-01-11 09:00,0.471
2021-01-11 09:15,0.480
2021-01-11 09:30,0.481
2021-01-11 09:45,0.482
2021-01-11 10:00,0.484
2021-01-11 10:15,0.485
2021-01-11 10:30,0.487
2021-01-11 10:45,0.489
2021-01-11 11:00,0.496
2021-01-11 11:15,0.498
2021-01-11 11:30,0.507
2021-01-11 11:45,0.522
2021-01-11 12:00,0.540
2021-01-11 12:15,0.570
2021-01-11 12:30,0.600
2021-01-11 12:45,0.629
2021-01-11 13:00,0.652
